%YAML 1.1
%TAG !u! tag:unity3d.com,2011:
--- !u!1 &5806584584789906840
GameObject:
  m_ObjectHideFlags: 0
  m_CorrespondingSourceObject: {fileID: 0}
  m_PrefabInstance: {fileID: 0}
  m_PrefabAsset: {fileID: 0}
  serializedVersion: 6
  m_Component:
  - component: {fileID: 7364636507049015793}
  m_Layer: 0
  m_Name: 2wall
  m_TagString: Untagged
  m_Icon: {fileID: 0}
  m_NavMeshLayer: 0
  m_StaticEditorFlags: 0
  m_IsActive: 1
--- !u!4 &7364636507049015793
Transform:
  m_ObjectHideFlags: 0
  m_CorrespondingSourceObject: {fileID: 0}
  m_PrefabInstance: {fileID: 0}
  m_PrefabAsset: {fileID: 0}
  m_GameObject: {fileID: 5806584584789906840}
  serializedVersion: 2
  m_LocalRotation: {x: -0, y: -0, z: -0, w: 1}
  m_LocalPosition: {x: 0, y: 0, z: 0}
  m_LocalScale: {x: 1, y: 1, z: 1}
  m_ConstrainProportionsScale: 0
  m_Children:
  - {fileID: 3023960249484175378}
  - {fileID: 5932204975435606021}
  m_Father: {fileID: 0}
  m_LocalEulerAnglesHint: {x: 0, y: 0, z: 0}
--- !u!1001 &3687616860081826023
PrefabInstance:
  m_ObjectHideFlags: 0
  serializedVersion: 2
  m_Modification:
    serializedVersion: 3
    m_TransformParent: {fileID: 7364636507049015793}
    m_Modifications:
    - target: {fileID: 7025165725477093602, guid: 5fb478ccd6b8e034d81cbd5584012b43, type: 3}
      propertyPath: m_LocalPosition.x
      value: 4
      objectReference: {fileID: 0}
    - target: {fileID: 7025165725477093602, guid: 5fb478ccd6b8e034d81cbd5584012b43, type: 3}
      propertyPath: m_LocalPosition.y
      value: 0
      objectReference: {fileID: 0}
    - target: {fileID: 7025165725477093602, guid: 5fb478ccd6b8e034d81cbd5584012b43, type: 3}
      propertyPath: m_LocalPosition.z
      value: 0
      objectReference: {fileID: 0}
    - target: {fileID: 7025165725477093602, guid: 5fb478ccd6b8e034d81cbd5584012b43, type: 3}
      propertyPath: m_LocalRotation.w
      value: 1
      objectReference: {fileID: 0}
    - target: {fileID: 7025165725477093602, guid: 5fb478ccd6b8e034d81cbd5584012b43, type: 3}
      propertyPath: m_LocalRotation.x
      value: -0
      objectReference: {fileID: 0}
    - target: {fileID: 7025165725477093602, guid: 5fb478ccd6b8e034d81cbd5584012b43, type: 3}
      propertyPath: m_LocalRotation.y
      value: -0
      objectReference: {fileID: 0}
    - target: {fileID: 7025165725477093602, guid: 5fb478ccd6b8e034d81cbd5584012b43, type: 3}
      propertyPath: m_LocalRotation.z
      value: -0
      objectReference: {fileID: 0}
    - target: {fileID: 7025165725477093602, guid: 5fb478ccd6b8e034d81cbd5584012b43, type: 3}
      propertyPath: m_LocalEulerAnglesHint.x
      value: 0
      objectReference: {fileID: 0}
    - target: {fileID: 7025165725477093602, guid: 5fb478ccd6b8e034d81cbd5584012b43, type: 3}
      propertyPath: m_LocalEulerAnglesHint.y
      value: 0
      objectReference: {fileID: 0}
    - target: {fileID: 7025165725477093602, guid: 5fb478ccd6b8e034d81cbd5584012b43, type: 3}
      propertyPath: m_LocalEulerAnglesHint.z
      value: 0
      objectReference: {fileID: 0}
    - target: {fileID: 9171456865933578240, guid: 5fb478ccd6b8e034d81cbd5584012b43, type: 3}
      propertyPath: m_Name
      value: WallBlock (3)
      objectReference: {fileID: 0}
    m_RemovedComponents: []
    m_RemovedGameObjects: []
    m_AddedGameObjects: []
    m_AddedComponents: []
  m_SourcePrefab: {fileID: 100100000, guid: 5fb478ccd6b8e034d81cbd5584012b43, type: 3}
--- !u!4 &5932204975435606021 stripped
Transform:
  m_CorrespondingSourceObject: {fileID: 7025165725477093602, guid: 5fb478ccd6b8e034d81cbd5584012b43, type: 3}
  m_PrefabInstance: {fileID: 3687616860081826023}
  m_PrefabAsset: {fileID: 0}
--- !u!1001 &5226749330763294960
PrefabInstance:
  m_ObjectHideFlags: 0
  serializedVersion: 2
  m_Modification:
    serializedVersion: 3
    m_TransformParent: {fileID: 7364636507049015793}
    m_Modifications:
    - target: {fileID: 7025165725477093602, guid: 5fb478ccd6b8e034d81cbd5584012b43, type: 3}
      propertyPath: m_LocalPosition.x
      value: 0
      objectReference: {fileID: 0}
    - target: {fileID: 7025165725477093602, guid: 5fb478ccd6b8e034d81cbd5584012b43, type: 3}
      propertyPath: m_LocalPosition.y
      value: 0
      objectReference: {fileID: 0}
    - target: {fileID: 7025165725477093602, guid: 5fb478ccd6b8e034d81cbd5584012b43, type: 3}
      propertyPath: m_LocalPosition.z
      value: 0
      objectReference: {fileID: 0}
    - target: {fileID: 7025165725477093602, guid: 5fb478ccd6b8e034d81cbd5584012b43, type: 3}
      propertyPath: m_LocalRotation.w
      value: 1
      objectReference: {fileID: 0}
    - target: {fileID: 7025165725477093602, guid: 5fb478ccd6b8e034d81cbd5584012b43, type: 3}
      propertyPath: m_LocalRotation.x
      value: -0
      objectReference: {fileID: 0}
    - target: {fileID: 7025165725477093602, guid: 5fb478ccd6b8e034d81cbd5584012b43, type: 3}
      propertyPath: m_LocalRotation.y
      value: -0
      objectReference: {fileID: 0}
    - target: {fileID: 7025165725477093602, guid: 5fb478ccd6b8e034d81cbd5584012b43, type: 3}
      propertyPath: m_LocalRotation.z
      value: -0
      objectReference: {fileID: 0}
    - target: {fileID: 7025165725477093602, guid: 5fb478ccd6b8e034d81cbd5584012b43, type: 3}
      propertyPath: m_LocalEulerAnglesHint.x
      value: 0
      objectReference: {fileID: 0}
    - target: {fileID: 7025165725477093602, guid: 5fb478ccd6b8e034d81cbd5584012b43, type: 3}
      propertyPath: m_LocalEulerAnglesHint.y
      value: 0
      objectReference: {fileID: 0}
    - target: {fileID: 7025165725477093602, guid: 5fb478ccd6b8e034d81cbd5584012b43, type: 3}
      propertyPath: m_LocalEulerAnglesHint.z
      value: 0
      objectReference: {fileID: 0}
    - target: {fileID: 9171456865933578240, guid: 5fb478ccd6b8e034d81cbd5584012b43, type: 3}
      propertyPath: m_Name
      value: WallBlock (2)
      objectReference: {fileID: 0}
    m_RemovedComponents: []
    m_RemovedGameObjects: []
    m_AddedGameObjects: []
    m_AddedComponents: []
  m_SourcePrefab: {fileID: 100100000, guid: 5fb478ccd6b8e034d81cbd5584012b43, type: 3}
--- !u!4 &3023960249484175378 stripped
Transform:
  m_CorrespondingSourceObject: {fileID: 7025165725477093602, guid: 5fb478ccd6b8e034d81cbd5584012b43, type: 3}
  m_PrefabInstance: {fileID: 5226749330763294960}
  m_PrefabAsset: {fileID: 0}
