{
    "name": "InputActions",
    "maps": [
        {
            "name": "Menu",
            "id": "1e18ec04-aa2b-4853-9792-30203033a859",
            "actions": [
                {
                    "name": "Navigate",
                    "type": "Value",
                    "id": "85853cd7-fbfb-41db-8816-6608e3e87ab0",
                    "expectedControlType": "Vector2",
                    "processors": "NormalizeVector2",
                    "interactions": ""
                },
                {
                    "name": "Submit",
                    "type": "Button",
                    "id": "9eef96ce-e105-4ceb-8a53-bbe1a371309c",
                    "expectedControlType": "",
                    "processors": "",
                    "interactions": ""
                },
                {
                    "name": "Point",
                    "type": "PassThrough",
                    "id": "fba69093-4c38-4bcd-b423-47aab75398ba",
                    "expectedControlType": "Vector2",
                    "processors": "",
                    "interactions": ""
                },
                {
                    "name": "Click",
                    "type": "PassThrough",
                    "id": "3fb8fa13-fcad-49a8-afe3-cdd4e372e5e5",
                    "expectedControlType": "Button",
                    "processors": "",
                    "interactions": ""
                }
            ],
            "bindings": [
                {
                    "name": "",
                    "id": "467940de-1f31-4030-af7e-5666795672b3",
                    "path": "<Mouse>/position",
                    "interactions": "",
                    "processors": "",
                    "groups": "",
                    "action": "Point",
                    "isComposite": false,
                    "isPartOfComposite": false
                },
                {
                    "name": "Keyboard",
                    "id": "97136392-f52a-4cff-a5a8-69fc4f4aeadd",
                    "path": "2DVector",
                    "interactions": "",
                    "processors": "",
                    "groups": "",
                    "action": "Navigate",
                    "isComposite": true,
                    "isPartOfComposite": false
                },
                {
                    "name": "up",
                    "id": "b5b6f5e5-7700-41cf-926f-1e5a3f4d375e",
                    "path": "<Keyboard>/w",
                    "interactions": "",
                    "processors": "",
                    "groups": "",
                    "action": "Navigate",
                    "isComposite": false,
                    "isPartOfComposite": true
                },
                {
                    "name": "up",
                    "id": "c288c40d-89fe-4e41-b9a8-d7e7a97737ee",
                    "path": "<Keyboard>/upArrow",
                    "interactions": "",
                    "processors": "",
                    "groups": "",
                    "action": "Navigate",
                    "isComposite": false,
                    "isPartOfComposite": true
                },
                {
                    "name": "down",
                    "id": "84196b15-40ef-49f9-90a7-4b5a9246a067",
                    "path": "<Keyboard>/s",
                    "interactions": "",
                    "processors": "",
                    "groups": "",
                    "action": "Navigate",
                    "isComposite": false,
                    "isPartOfComposite": true
                },
                {
                    "name": "down",
                    "id": "3d6ae9ab-68fe-4621-9b7b-e64e7f9f0eef",
                    "path": "<Keyboard>/downArrow",
                    "interactions": "",
                    "processors": "",
                    "groups": "",
                    "action": "Navigate",
                    "isComposite": false,
                    "isPartOfComposite": true
                },
                {
                    "name": "left",
                    "id": "6e1ef008-07cb-44ce-a28b-989d1d13702e",
                    "path": "<Keyboard>/a",
                    "interactions": "",
                    "processors": "",
                    "groups": "",
                    "action": "Navigate",
                    "isComposite": false,
                    "isPartOfComposite": true
                },
                {
                    "name": "left",
                    "id": "16e1552e-ee20-46ec-9374-66b28746206b",
                    "path": "<Keyboard>/leftArrow",
                    "interactions": "",
                    "processors": "",
                    "groups": "",
                    "action": "Navigate",
                    "isComposite": false,
                    "isPartOfComposite": true
                },
                {
                    "name": "right",
                    "id": "fa5201eb-bc35-49b2-9e9e-6320be62f47a",
                    "path": "<Keyboard>/d",
                    "interactions": "",
                    "processors": "",
                    "groups": "",
                    "action": "Navigate",
                    "isComposite": false,
                    "isPartOfComposite": true
                },
                {
                    "name": "right",
                    "id": "98a19aaf-d548-4f5e-931b-abf67b74c170",
                    "path": "<Keyboard>/rightArrow",
                    "interactions": "",
                    "processors": "",
                    "groups": "",
                    "action": "Navigate",
                    "isComposite": false,
                    "isPartOfComposite": true
                },
                {
                    "name": "",
                    "id": "04bec6f1-21f7-4dff-ad7b-3c0123c57015",
                    "path": "<Mouse>/leftButton",
                    "interactions": "",
                    "processors": "",
                    "groups": "",
                    "action": "Click",
                    "isComposite": false,
                    "isPartOfComposite": false
                },
                {
                    "name": "",
                    "id": "9e93a94c-08b0-46f8-a1bc-3c14d2d8d0dd",
                    "path": "<Keyboard>/enter",
                    "interactions": "",
                    "processors": "",
                    "groups": "",
                    "action": "Submit",
                    "isComposite": false,
                    "isPartOfComposite": false
                }
            ]
        },
        {
            "name": "Game",
            "id": "3e1955b3-9640-4f05-9308-68f21843a675",
            "actions": [
                {
                    "name": "Move",
                    "type": "Value",
                    "id": "939d233d-ea98-4bbb-b42a-008df1af4751",
                    "expectedControlType": "Vector2",
                    "processors": "NormalizeVector2",
                    "interactions": ""
                },
                {
                    "name": "Rotate",
                    "type": "Button",
                    "id": "711fc85f-3d57-4676-a9fe-62393731fe8a",
                    "expectedControlType": "Button",
                    "processors": "",
                    "interactions": ""
                },
                {
                    "name": "Zoom",
                    "type": "Value",
                    "id": "43b1e43e-fc20-4a8a-ad4a-9d1002e94195",
                    "expectedControlType": "Axis",
                    "processors": "",
                    "interactions": ""
                },
                {
                    "name": "Run",
                    "type": "Value",
                    "id": "bbb3b517-b87e-4a70-bef2-4e4dc14dd7de",
                    "expectedControlType": "Digital",
                    "processors": "",
                    "interactions": ""
                },
                {
                    "name": "SpeedUp",
                    "type": "Button",
                    "id": "e7817040-8620-4276-bf46-651308d0b22c",
                    "expectedControlType": "Button",
                    "processors": "",
                    "interactions": ""
                },
                {
                    "name": "SpeedDown",
                    "type": "Button",
                    "id": "b6507b77-24c6-4fdd-969e-1e7f9a0eca26",
                    "expectedControlType": "",
                    "processors": "",
                    "interactions": ""
                },
                {
                    "name": "Exit",
                    "type": "Button",
                    "id": "ab2ffd1c-f991-4b61-80ae-b3e3a3feb815",
                    "expectedControlType": "Button",
                    "processors": "",
                    "interactions": ""
                }
            ],
            "bindings": [
                {
                    "name": "Keyboard",
                    "id": "30c2dd2b-7ede-49d2-b94c-6de8e8e4d4d5",
                    "path": "2DVector",
                    "interactions": "",
                    "processors": "",
                    "groups": "",
                    "action": "Move",
                    "isComposite": true,
                    "isPartOfComposite": false
                },
                {
                    "name": "up",
                    "id": "1a565da8-2be1-49e7-97ca-2352669aba48",
                    "path": "<Keyboard>/w",
                    "interactions": "",
                    "processors": "",
                    "groups": "",
                    "action": "Move",
                    "isComposite": false,
                    "isPartOfComposite": true
                },
                {
                    "name": "up",
                    "id": "61b671ff-5864-4a99-8673-81cbb5f5163c",
                    "path": "<Keyboard>/upArrow",
                    "interactions": "",
                    "processors": "",
                    "groups": "",
                    "action": "Move",
                    "isComposite": false,
                    "isPartOfComposite": true
                },
                {
                    "name": "down",
                    "id": "010224ac-ff96-4d35-b41a-7ee7d69a8a8d",
                    "path": "<Keyboard>/s",
                    "interactions": "",
                    "processors": "",
                    "groups": "",
                    "action": "Move",
                    "isComposite": false,
                    "isPartOfComposite": true
                },
                {
                    "name": "down",
                    "id": "7f28a55b-0de2-43ba-8db6-ac7865996d57",
                    "path": "<Keyboard>/downArrow",
                    "interactions": "",
                    "processors": "",
                    "groups": "",
                    "action": "Move",
                    "isComposite": false,
                    "isPartOfComposite": true
                },
                {
                    "name": "left",
                    "id": "d8ea8884-0292-4d0d-a6e5-8f88883a8e0b",
                    "path": "<Keyboard>/a",
                    "interactions": "",
                    "processors": "",
                    "groups": "",
                    "action": "Move",
                    "isComposite": false,
                    "isPartOfComposite": true
                },
                {
                    "name": "left",
                    "id": "b471647f-251f-4ec7-a18c-181c58b85124",
                    "path": "<Keyboard>/leftArrow",
                    "interactions": "",
                    "processors": "",
                    "groups": "",
                    "action": "Move",
                    "isComposite": false,
                    "isPartOfComposite": true
                },
                {
                    "name": "right",
                    "id": "9f689af7-cc39-411c-8e09-babe515f35b4",
                    "path": "<Keyboard>/d",
                    "interactions": "",
                    "processors": "",
                    "groups": "",
                    "action": "Move",
                    "isComposite": false,
                    "isPartOfComposite": true
                },
                {
                    "name": "right",
                    "id": "f216e2de-4c49-4247-b08b-afb8927daa88",
                    "path": "<Keyboard>/rightArrow",
                    "interactions": "",
                    "processors": "",
                    "groups": "",
                    "action": "Move",
                    "isComposite": false,
                    "isPartOfComposite": true
                },
                {
                    "name": "",
                    "id": "9d976dce-c426-4999-8586-44303acf0368",
                    "path": "<Keyboard>/shift",
                    "interactions": "",
                    "processors": "",
                    "groups": "",
                    "action": "Run",
                    "isComposite": false,
                    "isPartOfComposite": false
                },
                {
                    "name": "Keyboard",
                    "id": "0b5d03e0-ba71-4610-aa90-dcd0a641e7e7",
                    "path": "1DAxis",
                    "interactions": "",
                    "processors": "",
                    "groups": "",
                    "action": "Rotate",
                    "isComposite": true,
                    "isPartOfComposite": false
                },
                {
                    "name": "negative",
                    "id": "9d9053d9-2485-4aa6-b138-873608529b86",
                    "path": "<Keyboard>/e",
                    "interactions": "",
                    "processors": "",
                    "groups": "",
                    "action": "Rotate",
                    "isComposite": false,
                    "isPartOfComposite": true
                },
                {
                    "name": "positive",
                    "id": "d8fd0952-c8a9-4506-9bff-cca4e75b25f8",
                    "path": "<Keyboard>/q",
                    "interactions": "",
                    "processors": "",
                    "groups": "",
                    "action": "Rotate",
                    "isComposite": false,
                    "isPartOfComposite": true
                },
                {
                    "name": "",
                    "id": "34814d2a-8b58-42f1-9e14-0af0b6d89b57",
                    "path": "<Mouse>/scroll/y",
                    "interactions": "",
                    "processors": "Invert",
                    "groups": "",
                    "action": "Zoom",
                    "isComposite": false,
                    "isPartOfComposite": false
                },
                {
                    "name": "",
                    "id": "dbd75767-7128-4a2f-a8d8-1514370018de",
                    "path": "<Keyboard>/numpadPlus",
                    "interactions": "",
                    "processors": "",
                    "groups": "",
                    "action": "SpeedUp",
                    "isComposite": false,
                    "isPartOfComposite": false
                },
                {
                    "name": "",
                    "id": "a8aa1643-c0fb-43b1-8b90-78817556ad6c",
                    "path": "<Keyboard>/numpadMinus",
                    "interactions": "",
                    "processors": "",
                    "groups": "",
                    "action": "SpeedDown",
                    "isComposite": false,
                    "isPartOfComposite": false
                },
                {
                    "name": "",
                    "id": "47b07809-2b49-4b58-8172-45fd357ad6d0",
                    "path": "<Keyboard>/escape",
                    "interactions": "",
                    "processors": "",
                    "groups": "",
                    "action": "Exit",
                    "isComposite": false,
                    "isPartOfComposite": false
                }
            ]
        }
    ],
    "controlSchemes": []
}