%YAML 1.1
%TAG !u! tag:unity3d.com,2011:
--- !u!114 &11400000
MonoBehaviour:
  m_ObjectHideFlags: 0
  m_CorrespondingSourceObject: {fileID: 0}
  m_PrefabInstance: {fileID: 0}
  m_PrefabAsset: {fileID: 0}
  m_GameObject: {fileID: 0}
  m_Enabled: 1
  m_EditorHideFlags: 0
  m_Script: {fileID: 11500000, guid: 42bf2844b693ea1429cd4ccae01519ad, type: 3}
  m_Name: BaseEnemy
  m_EditorClassIdentifier: 
  name: Robot
  critChance: 10
  health: 200
  minDamage: 100
  maxDamage: 160
  range: 8
  numberOfActionToShoot: 1
  speed: 45
  armor: 0
  moveDistance: 3
  prefab: {fileID: 8502485937361175502, guid: 061dd038cbb79514d981496fbfbb4245, type: 3}
  iconImage: {fileID: -2262432372255840502, guid: dd4b7609e611492449a07489cadb0f57, type: 3}
  portraitImage: {fileID: 21300000, guid: 06256efc998281c49a31b8567e92323e, type: 3}
