%YAML 1.1
%TAG !u! tag:unity3d.com,2011:
--- !u!114 &11400000
MonoBehaviour:
  m_ObjectHideFlags: 0
  m_CorrespondingSourceObject: {fileID: 0}
  m_PrefabInstance: {fileID: 0}
  m_PrefabAsset: {fileID: 0}
  m_GameObject: {fileID: 0}
  m_Enabled: 1
  m_EditorHideFlags: 0
  m_Script: {fileID: 11500000, guid: 42bf2844b693ea1429cd4ccae01519ad, type: 3}
  m_Name: SniperEnemy
  m_EditorClassIdentifier: 
  name: Sniper
  critChance: 10
  health: 550
  minDamage: 150
  maxDamage: 180
  range: 10
  numberOfActionToShoot: 2
  speed: 30
  armor: 0
  moveDistance: 6
  prefab: {fileID: 8502485937361175502, guid: 061dd038cbb79514d981496fbfbb4245, type: 3}
  iconImage: {fileID: -8819466259128222759, guid: ddbd79c2d7c9a56499e07f840b614317, type: 3}
  portraitImage: {fileID: 21300000, guid: 7fb225805326e4b4496586a15c1f4213, type: 3}
