%YAML 1.1
%TAG !u! tag:unity3d.com,2011:
--- !u!1 &139780983806052833
GameObject:
  m_ObjectHideFlags: 0
  m_CorrespondingSourceObject: {fileID: 0}
  m_PrefabInstance: {fileID: 0}
  m_PrefabAsset: {fileID: 0}
  serializedVersion: 6
  m_Component:
  - component: {fileID: 6666327000730001685}
  m_Layer: 0
  m_Name: lowerarm_twist_01_r
  m_TagString: Untagged
  m_Icon: {fileID: 0}
  m_NavMeshLayer: 0
  m_StaticEditorFlags: 0
  m_IsActive: 1
--- !u!4 &6666327000730001685
Transform:
  m_ObjectHideFlags: 0
  m_CorrespondingSourceObject: {fileID: 0}
  m_PrefabInstance: {fileID: 0}
  m_PrefabAsset: {fileID: 0}
  m_GameObject: {fileID: 139780983806052833}
  serializedVersion: 2
  m_LocalRotation: {x: -0.117627144, y: -0.000000014742938, z: -0.0000000022152093, w: 0.99305785}
  m_LocalPosition: {x: 0.13999993, y: 0.00000028610228, z: -0.00000015258789}
  m_LocalScale: {x: 1, y: 1, z: 1}
  m_ConstrainProportionsScale: 0
  m_Children: []
  m_Father: {fileID: 3102308965353689368}
  m_LocalEulerAnglesHint: {x: 0, y: 0, z: 0}
--- !u!1 &386521261029633247
GameObject:
  m_ObjectHideFlags: 0
  m_CorrespondingSourceObject: {fileID: 0}
  m_PrefabInstance: {fileID: 0}
  m_PrefabAsset: {fileID: 0}
  serializedVersion: 6
  m_Component:
  - component: {fileID: 6371822298685238483}
  m_Layer: 0
  m_Name: upperarm_l
  m_TagString: Untagged
  m_Icon: {fileID: 0}
  m_NavMeshLayer: 0
  m_StaticEditorFlags: 0
  m_IsActive: 1
--- !u!4 &6371822298685238483
Transform:
  m_ObjectHideFlags: 0
  m_CorrespondingSourceObject: {fileID: 0}
  m_PrefabInstance: {fileID: 0}
  m_PrefabAsset: {fileID: 0}
  m_GameObject: {fileID: 386521261029633247}
  serializedVersion: 2
  m_LocalRotation: {x: 0.013699035, y: 0.040999018, z: 0.19286229, w: 0.98027325}
  m_LocalPosition: {x: -0.15784869, y: -0.000000007152557, z: 0.00000030517577}
  m_LocalScale: {x: 1, y: 1, z: 1}
  m_ConstrainProportionsScale: 0
  m_Children:
  - {fileID: 7267573791668023508}
  m_Father: {fileID: 8446754194087254778}
  m_LocalEulerAnglesHint: {x: 0, y: 0, z: 0}
--- !u!1 &389442971680940488
GameObject:
  m_ObjectHideFlags: 0
  m_CorrespondingSourceObject: {fileID: 0}
  m_PrefabInstance: {fileID: 0}
  m_PrefabAsset: {fileID: 0}
  serializedVersion: 6
  m_Component:
  - component: {fileID: 5193191211276314480}
  - component: {fileID: 6623819698317713882}
  m_Layer: 0
  m_Name: Sci_Fi_Character_08_Bag_02
  m_TagString: Untagged
  m_Icon: {fileID: 0}
  m_NavMeshLayer: 0
  m_StaticEditorFlags: 0
  m_IsActive: 1
--- !u!4 &5193191211276314480
Transform:
  m_ObjectHideFlags: 0
  m_CorrespondingSourceObject: {fileID: 0}
  m_PrefabInstance: {fileID: 0}
  m_PrefabAsset: {fileID: 0}
  m_GameObject: {fileID: 389442971680940488}
  serializedVersion: 2
  m_LocalRotation: {x: -0.7071068, y: 0, z: -0, w: 0.7071068}
  m_LocalPosition: {x: -0, y: 0, z: 0}
  m_LocalScale: {x: 1, y: 1, z: 1}
  m_ConstrainProportionsScale: 0
  m_Children: []
  m_Father: {fileID: 8694017505111132838}
  m_LocalEulerAnglesHint: {x: 0, y: 0, z: 0}
--- !u!137 &6623819698317713882
SkinnedMeshRenderer:
  m_ObjectHideFlags: 0
  m_CorrespondingSourceObject: {fileID: 0}
  m_PrefabInstance: {fileID: 0}
  m_PrefabAsset: {fileID: 0}
  m_GameObject: {fileID: 389442971680940488}
  m_Enabled: 1
  m_CastShadows: 1
  m_ReceiveShadows: 1
  m_DynamicOccludee: 1
  m_StaticShadowCaster: 0
  m_MotionVectors: 1
  m_LightProbeUsage: 1
  m_ReflectionProbeUsage: 1
  m_RayTracingMode: 0
  m_RayTraceProcedural: 0
  m_RenderingLayerMask: 1
  m_RendererPriority: 0
  m_Materials:
  - {fileID: 2100000, guid: 98f00aa3cc0f77c4c95b86cc6a17cd05, type: 2}
  m_StaticBatchInfo:
    firstSubMesh: 0
    subMeshCount: 0
  m_StaticBatchRoot: {fileID: 0}
  m_ProbeAnchor: {fileID: 0}
  m_LightProbeVolumeOverride: {fileID: 0}
  m_ScaleInLightmap: 1
  m_ReceiveGI: 1
  m_PreserveUVs: 0
  m_IgnoreNormalsForChartDetection: 0
  m_ImportantGI: 0
  m_StitchLightmapSeams: 1
  m_SelectedEditorRenderState: 3
  m_MinimumChartSize: 4
  m_AutoUVMaxDistance: 0.5
  m_AutoUVMaxAngle: 89
  m_LightmapParameters: {fileID: 0}
  m_SortingLayerID: 0
  m_SortingLayer: 0
  m_SortingOrder: 0
  serializedVersion: 2
  m_Quality: 0
  m_UpdateWhenOffscreen: 0
  m_SkinnedMotionVectors: 1
  m_Mesh: {fileID: -2184512698448816926, guid: 26489012c8ee8af4d84156e5e5ac1035, type: 3}
  m_Bones:
  - {fileID: 5548732878041141538}
  - {fileID: 7005996462175678975}
  - {fileID: 7400218048703543253}
  - {fileID: 8062854723093809935}
  - {fileID: 6295513038251650356}
  - {fileID: 4908912505468820689}
  - {fileID: 2685130160409489248}
  m_BlendShapeWeights: []
  m_RootBone: {fileID: 7005996462175678975}
  m_AABB:
    m_Center: {x: -0.04420401, y: -0.01853609, z: 0.20572436}
    m_Extent: {x: 0.0694641, y: 0.15500826, z: 0.08719647}
  m_DirtyAABB: 0
--- !u!1 &598930459921126280
GameObject:
  m_ObjectHideFlags: 0
  m_CorrespondingSourceObject: {fileID: 0}
  m_PrefabInstance: {fileID: 0}
  m_PrefabAsset: {fileID: 0}
  serializedVersion: 6
  m_Component:
  - component: {fileID: 3971514320289331663}
  m_Layer: 0
  m_Name: index_03_l
  m_TagString: Untagged
  m_Icon: {fileID: 0}
  m_NavMeshLayer: 0
  m_StaticEditorFlags: 0
  m_IsActive: 1
--- !u!4 &3971514320289331663
Transform:
  m_ObjectHideFlags: 0
  m_CorrespondingSourceObject: {fileID: 0}
  m_PrefabInstance: {fileID: 0}
  m_PrefabAsset: {fileID: 0}
  m_GameObject: {fileID: 598930459921126280}
  serializedVersion: 2
  m_LocalRotation: {x: 0.010611163, y: -0.007850896, z: 0.08285504, w: 0.9964742}
  m_LocalPosition: {x: -0.033937987, y: 0.00000015258789, z: -0.000000076293944}
  m_LocalScale: {x: 1, y: 1, z: 1}
  m_ConstrainProportionsScale: 0
  m_Children: []
  m_Father: {fileID: 4249311769628632989}
  m_LocalEulerAnglesHint: {x: 0, y: 0, z: 0}
--- !u!1 &627662250638070423
GameObject:
  m_ObjectHideFlags: 0
  m_CorrespondingSourceObject: {fileID: 0}
  m_PrefabInstance: {fileID: 0}
  m_PrefabAsset: {fileID: 0}
  serializedVersion: 6
  m_Component:
  - component: {fileID: 2326417097526803833}
  m_Layer: 0
  m_Name: hand_r
  m_TagString: Untagged
  m_Icon: {fileID: 0}
  m_NavMeshLayer: 0
  m_StaticEditorFlags: 0
  m_IsActive: 1
--- !u!4 &2326417097526803833
Transform:
  m_ObjectHideFlags: 0
  m_CorrespondingSourceObject: {fileID: 0}
  m_PrefabInstance: {fileID: 0}
  m_PrefabAsset: {fileID: 0}
  m_GameObject: {fileID: 627662250638070423}
  serializedVersion: 2
  m_LocalRotation: {x: -0.6178953, y: -0.01937199, z: -0.010653302, w: 0.7859495}
  m_LocalPosition: {x: 0.2697525, y: 0.0000002479553, z: 0}
  m_LocalScale: {x: 1, y: 1, z: 1}
  m_ConstrainProportionsScale: 0
  m_Children:
  - {fileID: 3163058686169513304}
  - {fileID: 1269179811323654018}
  - {fileID: 4199363159358980996}
  - {fileID: 6518292001187454820}
  - {fileID: 6450773108082417335}
  m_Father: {fileID: 3102308965353689368}
  m_LocalEulerAnglesHint: {x: 0, y: 0, z: 0}
--- !u!1 &753817731393664397
GameObject:
  m_ObjectHideFlags: 0
  m_CorrespondingSourceObject: {fileID: 0}
  m_PrefabInstance: {fileID: 0}
  m_PrefabAsset: {fileID: 0}
  serializedVersion: 6
  m_Component:
  - component: {fileID: 3692242892422369333}
  m_Layer: 0
  m_Name: thumb_01_l
  m_TagString: Untagged
  m_Icon: {fileID: 0}
  m_NavMeshLayer: 0
  m_StaticEditorFlags: 0
  m_IsActive: 1
--- !u!4 &3692242892422369333
Transform:
  m_ObjectHideFlags: 0
  m_CorrespondingSourceObject: {fileID: 0}
  m_PrefabInstance: {fileID: 0}
  m_PrefabAsset: {fileID: 0}
  m_GameObject: {fileID: 753817731393664397}
  serializedVersion: 2
  m_LocalRotation: {x: 0.63030905, y: -0.37152508, z: 0.077290155, w: 0.6772783}
  m_LocalPosition: {x: -0.047620315, y: 0.023749847, z: -0.025378188}
  m_LocalScale: {x: 1, y: 1, z: 1}
  m_ConstrainProportionsScale: 0
  m_Children:
  - {fileID: 4046249190106680677}
  m_Father: {fileID: 5904285499249611371}
  m_LocalEulerAnglesHint: {x: 0, y: 0, z: 0}
--- !u!1 &830516996037065108
GameObject:
  m_ObjectHideFlags: 0
  m_CorrespondingSourceObject: {fileID: 0}
  m_PrefabInstance: {fileID: 0}
  m_PrefabAsset: {fileID: 0}
  serializedVersion: 6
  m_Component:
  - component: {fileID: 2176433580542732420}
  m_Layer: 0
  m_Name: lowerarm_twist_01_l
  m_TagString: Untagged
  m_Icon: {fileID: 0}
  m_NavMeshLayer: 0
  m_StaticEditorFlags: 0
  m_IsActive: 1
--- !u!4 &2176433580542732420
Transform:
  m_ObjectHideFlags: 0
  m_CorrespondingSourceObject: {fileID: 0}
  m_PrefabInstance: {fileID: 0}
  m_PrefabAsset: {fileID: 0}
  m_GameObject: {fileID: 830516996037065108}
  serializedVersion: 2
  m_LocalRotation: {x: -1.1275703e-16, y: -0.000000018626451, z: -0.0000000060535967, w: 1}
  m_LocalPosition: {x: -0.13999993, y: 0.000000019073486, z: -0.00000015258789}
  m_LocalScale: {x: 1, y: 1, z: 1}
  m_ConstrainProportionsScale: 0
  m_Children: []
  m_Father: {fileID: 7267573791668023508}
  m_LocalEulerAnglesHint: {x: 0, y: 0, z: 0}
--- !u!1 &914295859951449008
GameObject:
  m_ObjectHideFlags: 0
  m_CorrespondingSourceObject: {fileID: 0}
  m_PrefabInstance: {fileID: 0}
  m_PrefabAsset: {fileID: 0}
  serializedVersion: 6
  m_Component:
  - component: {fileID: 944189799739332822}
  m_Layer: 0
  m_Name: index_01_l
  m_TagString: Untagged
  m_Icon: {fileID: 0}
  m_NavMeshLayer: 0
  m_StaticEditorFlags: 0
  m_IsActive: 1
--- !u!4 &944189799739332822
Transform:
  m_ObjectHideFlags: 0
  m_CorrespondingSourceObject: {fileID: 0}
  m_PrefabInstance: {fileID: 0}
  m_PrefabAsset: {fileID: 0}
  m_GameObject: {fileID: 914295859951449008}
  serializedVersion: 2
  m_LocalRotation: {x: 0.13330457, y: 0.003180142, z: -0.22317974, w: 0.96561414}
  m_LocalPosition: {x: -0.120681226, y: 0.017634735, z: -0.021093978}
  m_LocalScale: {x: 1, y: 1, z: 1}
  m_ConstrainProportionsScale: 0
  m_Children:
  - {fileID: 4249311769628632989}
  m_Father: {fileID: 5904285499249611371}
  m_LocalEulerAnglesHint: {x: 0, y: 0, z: 0}
--- !u!1 &1102671840527499808
GameObject:
  m_ObjectHideFlags: 0
  m_CorrespondingSourceObject: {fileID: 0}
  m_PrefabInstance: {fileID: 0}
  m_PrefabAsset: {fileID: 0}
  serializedVersion: 6
  m_Component:
  - component: {fileID: 5904285499249611371}
  m_Layer: 0
  m_Name: hand_l
  m_TagString: Untagged
  m_Icon: {fileID: 0}
  m_NavMeshLayer: 0
  m_StaticEditorFlags: 0
  m_IsActive: 1
--- !u!4 &5904285499249611371
Transform:
  m_ObjectHideFlags: 0
  m_CorrespondingSourceObject: {fileID: 0}
  m_PrefabInstance: {fileID: 0}
  m_PrefabAsset: {fileID: 0}
  m_GameObject: {fileID: 1102671840527499808}
  serializedVersion: 2
  m_LocalRotation: {x: -0.61789525, y: -0.01937195, z: -0.010653291, w: 0.7859495}
  m_LocalPosition: {x: -0.26975134, y: 0.000000019073486, z: -0.00000015258789}
  m_LocalScale: {x: 1, y: 1, z: 1}
  m_ConstrainProportionsScale: 0
  m_Children:
  - {fileID: 944189799739332822}
  - {fileID: 3649463297760210602}
  - {fileID: 2982948472221613541}
  - {fileID: 8834341092014352794}
  - {fileID: 3692242892422369333}
  m_Father: {fileID: 7267573791668023508}
  m_LocalEulerAnglesHint: {x: 0, y: 0, z: 0}
--- !u!1 &1154411576308054501
GameObject:
  m_ObjectHideFlags: 0
  m_CorrespondingSourceObject: {fileID: 0}
  m_PrefabInstance: {fileID: 0}
  m_PrefabAsset: {fileID: 0}
  serializedVersion: 6
  m_Component:
  - component: {fileID: 1504719773650852940}
  - component: {fileID: 7467423012686483259}
  m_Layer: 0
  m_Name: Sci_Fi_Character_08_Shoes_Details_02
  m_TagString: Untagged
  m_Icon: {fileID: 0}
  m_NavMeshLayer: 0
  m_StaticEditorFlags: 0
  m_IsActive: 1
--- !u!4 &1504719773650852940
Transform:
  m_ObjectHideFlags: 0
  m_CorrespondingSourceObject: {fileID: 0}
  m_PrefabInstance: {fileID: 0}
  m_PrefabAsset: {fileID: 0}
  m_GameObject: {fileID: 1154411576308054501}
  serializedVersion: 2
  m_LocalRotation: {x: -0.7071068, y: 0, z: -0, w: 0.7071068}
  m_LocalPosition: {x: -0, y: 0, z: 0}
  m_LocalScale: {x: 1, y: 1, z: 1}
  m_ConstrainProportionsScale: 0
  m_Children: []
  m_Father: {fileID: 8694017505111132838}
  m_LocalEulerAnglesHint: {x: 0, y: 0, z: 0}
--- !u!137 &7467423012686483259
SkinnedMeshRenderer:
  m_ObjectHideFlags: 0
  m_CorrespondingSourceObject: {fileID: 0}
  m_PrefabInstance: {fileID: 0}
  m_PrefabAsset: {fileID: 0}
  m_GameObject: {fileID: 1154411576308054501}
  m_Enabled: 1
  m_CastShadows: 1
  m_ReceiveShadows: 1
  m_DynamicOccludee: 1
  m_StaticShadowCaster: 0
  m_MotionVectors: 1
  m_LightProbeUsage: 1
  m_ReflectionProbeUsage: 1
  m_RayTracingMode: 0
  m_RayTraceProcedural: 0
  m_RenderingLayerMask: 1
  m_RendererPriority: 0
  m_Materials:
  - {fileID: 2100000, guid: 98f00aa3cc0f77c4c95b86cc6a17cd05, type: 2}
  m_StaticBatchInfo:
    firstSubMesh: 0
    subMeshCount: 0
  m_StaticBatchRoot: {fileID: 0}
  m_ProbeAnchor: {fileID: 0}
  m_LightProbeVolumeOverride: {fileID: 0}
  m_ScaleInLightmap: 1
  m_ReceiveGI: 1
  m_PreserveUVs: 0
  m_IgnoreNormalsForChartDetection: 0
  m_ImportantGI: 0
  m_StitchLightmapSeams: 1
  m_SelectedEditorRenderState: 3
  m_MinimumChartSize: 4
  m_AutoUVMaxDistance: 0.5
  m_AutoUVMaxAngle: 89
  m_LightmapParameters: {fileID: 0}
  m_SortingLayerID: 0
  m_SortingLayer: 0
  m_SortingOrder: 0
  serializedVersion: 2
  m_Quality: 0
  m_UpdateWhenOffscreen: 0
  m_SkinnedMotionVectors: 1
  m_Mesh: {fileID: -1242687825011615731, guid: 26489012c8ee8af4d84156e5e5ac1035, type: 3}
  m_Bones:
  - {fileID: 1889905428886274989}
  - {fileID: 4724628722835533865}
  - {fileID: 9085869274335169763}
  - {fileID: 5548732878041141538}
  - {fileID: 4106119257031642895}
  - {fileID: 986945781822757406}
  m_BlendShapeWeights: []
  m_RootBone: {fileID: 5548732878041141538}
  m_AABB:
    m_Center: {x: -0.37858635, y: 0.030565642, z: -0.17648906}
    m_Extent: {x: 0.103949875, y: 0.104341395, z: 0.27020884}
  m_DirtyAABB: 0
--- !u!1 &1162158538992047807
GameObject:
  m_ObjectHideFlags: 0
  m_CorrespondingSourceObject: {fileID: 0}
  m_PrefabInstance: {fileID: 0}
  m_PrefabAsset: {fileID: 0}
  serializedVersion: 6
  m_Component:
  - component: {fileID: 2982948472221613541}
  m_Layer: 0
  m_Name: pinky_01_l
  m_TagString: Untagged
  m_Icon: {fileID: 0}
  m_NavMeshLayer: 0
  m_StaticEditorFlags: 0
  m_IsActive: 1
--- !u!4 &2982948472221613541
Transform:
  m_ObjectHideFlags: 0
  m_CorrespondingSourceObject: {fileID: 0}
  m_PrefabInstance: {fileID: 0}
  m_PrefabAsset: {fileID: 0}
  m_GameObject: {fileID: 1162158538992047807}
  serializedVersion: 2
  m_LocalRotation: {x: -0.12953787, y: 0.18789692, z: -0.14421311, w: 0.9628693}
  m_LocalPosition: {x: -0.10140671, y: 0.02263153, z: 0.046431463}
  m_LocalScale: {x: 1, y: 1, z: 1}
  m_ConstrainProportionsScale: 0
  m_Children:
  - {fileID: 9031606283508593182}
  m_Father: {fileID: 5904285499249611371}
  m_LocalEulerAnglesHint: {x: 0, y: 0, z: 0}
--- !u!1 &1270437473791979717
GameObject:
  m_ObjectHideFlags: 0
  m_CorrespondingSourceObject: {fileID: 0}
  m_PrefabInstance: {fileID: 0}
  m_PrefabAsset: {fileID: 0}
  serializedVersion: 6
  m_Component:
  - component: {fileID: 8446754194087254778}
  m_Layer: 0
  m_Name: clavicle_l
  m_TagString: Untagged
  m_Icon: {fileID: 0}
  m_NavMeshLayer: 0
  m_StaticEditorFlags: 0
  m_IsActive: 1
--- !u!4 &8446754194087254778
Transform:
  m_ObjectHideFlags: 0
  m_CorrespondingSourceObject: {fileID: 0}
  m_PrefabInstance: {fileID: 0}
  m_PrefabAsset: {fileID: 0}
  m_GameObject: {fileID: 1270437473791979717}
  serializedVersion: 2
  m_LocalRotation: {x: 0.20891786, y: -0.7294168, z: -0.123043895, w: 0.6396598}
  m_LocalPosition: {x: -0.118836515, y: -0.0273209, z: -0.03781983}
  m_LocalScale: {x: 1, y: 1, z: 1}
  m_ConstrainProportionsScale: 0
  m_Children:
  - {fileID: 6371822298685238483}
  m_Father: {fileID: 2685130160409489248}
  m_LocalEulerAnglesHint: {x: 0, y: 0, z: 0}
--- !u!1 &1625637268203865521
GameObject:
  m_ObjectHideFlags: 0
  m_CorrespondingSourceObject: {fileID: 0}
  m_PrefabInstance: {fileID: 0}
  m_PrefabAsset: {fileID: 0}
  serializedVersion: 6
  m_Component:
  - component: {fileID: 3064859334211718658}
  m_Layer: 0
  m_Name: middle_03_r
  m_TagString: Untagged
  m_Icon: {fileID: 0}
  m_NavMeshLayer: 0
  m_StaticEditorFlags: 0
  m_IsActive: 1
--- !u!4 &3064859334211718658
Transform:
  m_ObjectHideFlags: 0
  m_CorrespondingSourceObject: {fileID: 0}
  m_PrefabInstance: {fileID: 0}
  m_PrefabAsset: {fileID: 0}
  m_GameObject: {fileID: 1625637268203865521}
  serializedVersion: 2
  m_LocalRotation: {x: 0.0016214378, y: 0.038867008, z: 0.13362361, w: 0.9902684}
  m_LocalPosition: {x: 0.036489103, y: 0.00000030517577, z: -0.000000038146972}
  m_LocalScale: {x: 1, y: 1, z: 1}
  m_ConstrainProportionsScale: 0
  m_Children: []
  m_Father: {fileID: 6450636353456185353}
  m_LocalEulerAnglesHint: {x: 0, y: 0, z: 0}
--- !u!1 &1766475815377730218
GameObject:
  m_ObjectHideFlags: 0
  m_CorrespondingSourceObject: {fileID: 0}
  m_PrefabInstance: {fileID: 0}
  m_PrefabAsset: {fileID: 0}
  serializedVersion: 6
  m_Component:
  - component: {fileID: 8062854723093809935}
  m_Layer: 0
  m_Name: spine_02
  m_TagString: Untagged
  m_Icon: {fileID: 0}
  m_NavMeshLayer: 0
  m_StaticEditorFlags: 0
  m_IsActive: 1
--- !u!4 &8062854723093809935
Transform:
  m_ObjectHideFlags: 0
  m_CorrespondingSourceObject: {fileID: 0}
  m_PrefabInstance: {fileID: 0}
  m_PrefabAsset: {fileID: 0}
  m_GameObject: {fileID: 1766475815377730218}
  serializedVersion: 2
  m_LocalRotation: {x: -3.9594643e-12, y: 8.031096e-14, z: -0.12241963, w: 0.99247843}
  m_LocalPosition: {x: -0.1887535, y: 0.038011625, z: 5.96483e-10}
  m_LocalScale: {x: 1, y: 1, z: 1}
  m_ConstrainProportionsScale: 0
  m_Children:
  - {fileID: 2685130160409489248}
  m_Father: {fileID: 7400218048703543253}
  m_LocalEulerAnglesHint: {x: 0, y: 0, z: 0}
--- !u!1 &1790090632096052890
GameObject:
  m_ObjectHideFlags: 0
  m_CorrespondingSourceObject: {fileID: 0}
  m_PrefabInstance: {fileID: 0}
  m_PrefabAsset: {fileID: 0}
  serializedVersion: 6
  m_Component:
  - component: {fileID: 3395364336495788735}
  m_Layer: 0
  m_Name: upperarm_r
  m_TagString: Untagged
  m_Icon: {fileID: 0}
  m_NavMeshLayer: 0
  m_StaticEditorFlags: 0
  m_IsActive: 1
--- !u!4 &3395364336495788735
Transform:
  m_ObjectHideFlags: 0
  m_CorrespondingSourceObject: {fileID: 0}
  m_PrefabInstance: {fileID: 0}
  m_PrefabAsset: {fileID: 0}
  m_GameObject: {fileID: 1790090632096052890}
  serializedVersion: 2
  m_LocalRotation: {x: 0.013699019, y: 0.040998764, z: 0.19286232, w: 0.98027325}
  m_LocalPosition: {x: 0.15784794, y: -0.00000005483627, z: -0.00000045776366}
  m_LocalScale: {x: 1, y: 1, z: 1}
  m_ConstrainProportionsScale: 0
  m_Children:
  - {fileID: 3102308965353689368}
  m_Father: {fileID: 2310116495164625988}
  m_LocalEulerAnglesHint: {x: 0, y: 0, z: 0}
--- !u!1 &1868687222779294240
GameObject:
  m_ObjectHideFlags: 0
  m_CorrespondingSourceObject: {fileID: 0}
  m_PrefabInstance: {fileID: 0}
  m_PrefabAsset: {fileID: 0}
  serializedVersion: 6
  m_Component:
  - component: {fileID: 6450636353456185353}
  m_Layer: 0
  m_Name: middle_02_r
  m_TagString: Untagged
  m_Icon: {fileID: 0}
  m_NavMeshLayer: 0
  m_StaticEditorFlags: 0
  m_IsActive: 1
--- !u!4 &6450636353456185353
Transform:
  m_ObjectHideFlags: 0
  m_CorrespondingSourceObject: {fileID: 0}
  m_PrefabInstance: {fileID: 0}
  m_PrefabAsset: {fileID: 0}
  m_GameObject: {fileID: 1868687222779294240}
  serializedVersion: 2
  m_LocalRotation: {x: -0.01862893, y: -0.007972191, z: -0.107116625, w: 0.99403995}
  m_LocalPosition: {x: 0.046405677, y: -0.0000012207031, z: 0.000000038146972}
  m_LocalScale: {x: 1, y: 1, z: 1}
  m_ConstrainProportionsScale: 0
  m_Children:
  - {fileID: 3064859334211718658}
  m_Father: {fileID: 1269179811323654018}
  m_LocalEulerAnglesHint: {x: 0, y: 0, z: 0}
--- !u!1 &1901411530874099207
GameObject:
  m_ObjectHideFlags: 0
  m_CorrespondingSourceObject: {fileID: 0}
  m_PrefabInstance: {fileID: 0}
  m_PrefabAsset: {fileID: 0}
  serializedVersion: 6
  m_Component:
  - component: {fileID: 854528387286397295}
  - component: {fileID: 3868052248542534721}
  m_Layer: 0
  m_Name: Sci_Fi_Character_08_Head_01
  m_TagString: Untagged
  m_Icon: {fileID: 0}
  m_NavMeshLayer: 0
  m_StaticEditorFlags: 0
  m_IsActive: 1
--- !u!4 &854528387286397295
Transform:
  m_ObjectHideFlags: 0
  m_CorrespondingSourceObject: {fileID: 0}
  m_PrefabInstance: {fileID: 0}
  m_PrefabAsset: {fileID: 0}
  m_GameObject: {fileID: 1901411530874099207}
  serializedVersion: 2
  m_LocalRotation: {x: -0.7071068, y: 0, z: -0, w: 0.7071068}
  m_LocalPosition: {x: -0, y: 0, z: 0}
  m_LocalScale: {x: 1, y: 1, z: 1}
  m_ConstrainProportionsScale: 0
  m_Children: []
  m_Father: {fileID: 8694017505111132838}
  m_LocalEulerAnglesHint: {x: 0, y: 0, z: 0}
--- !u!137 &3868052248542534721
SkinnedMeshRenderer:
  m_ObjectHideFlags: 0
  m_CorrespondingSourceObject: {fileID: 0}
  m_PrefabInstance: {fileID: 0}
  m_PrefabAsset: {fileID: 0}
  m_GameObject: {fileID: 1901411530874099207}
  m_Enabled: 1
  m_CastShadows: 1
  m_ReceiveShadows: 1
  m_DynamicOccludee: 1
  m_StaticShadowCaster: 0
  m_MotionVectors: 1
  m_LightProbeUsage: 1
  m_ReflectionProbeUsage: 1
  m_RayTracingMode: 0
  m_RayTraceProcedural: 0
  m_RenderingLayerMask: 1
  m_RendererPriority: 0
  m_Materials:
  - {fileID: 2100000, guid: 98f00aa3cc0f77c4c95b86cc6a17cd05, type: 2}
  m_StaticBatchInfo:
    firstSubMesh: 0
    subMeshCount: 0
  m_StaticBatchRoot: {fileID: 0}
  m_ProbeAnchor: {fileID: 0}
  m_LightProbeVolumeOverride: {fileID: 0}
  m_ScaleInLightmap: 1
  m_ReceiveGI: 1
  m_PreserveUVs: 0
  m_IgnoreNormalsForChartDetection: 0
  m_ImportantGI: 0
  m_StitchLightmapSeams: 1
  m_SelectedEditorRenderState: 3
  m_MinimumChartSize: 4
  m_AutoUVMaxDistance: 0.5
  m_AutoUVMaxAngle: 89
  m_LightmapParameters: {fileID: 0}
  m_SortingLayerID: 0
  m_SortingLayer: 0
  m_SortingOrder: 0
  serializedVersion: 2
  m_Quality: 0
  m_UpdateWhenOffscreen: 0
  m_SkinnedMotionVectors: 1
  m_Mesh: {fileID: 3233865105078660530, guid: 26489012c8ee8af4d84156e5e5ac1035, type: 3}
  m_Bones:
  - {fileID: 6978241325947550956}
  - {fileID: 2685130160409489248}
  - {fileID: 4839938331595795960}
  - {fileID: 8446754194087254778}
  - {fileID: 2310116495164625988}
  m_BlendShapeWeights: []
  m_RootBone: {fileID: 2685130160409489248}
  m_AABB:
    m_Center: {x: -0.263034, y: -0.07965866, z: -0.00022193044}
    m_Extent: {x: 0.15534896, y: 0.12813556, z: 0.09070724}
  m_DirtyAABB: 0
--- !u!1 &2119269913659021460
GameObject:
  m_ObjectHideFlags: 0
  m_CorrespondingSourceObject: {fileID: 0}
  m_PrefabInstance: {fileID: 0}
  m_PrefabAsset: {fileID: 0}
  serializedVersion: 6
  m_Component:
  - component: {fileID: 8834341092014352794}
  m_Layer: 0
  m_Name: ring_01_l
  m_TagString: Untagged
  m_Icon: {fileID: 0}
  m_NavMeshLayer: 0
  m_StaticEditorFlags: 0
  m_IsActive: 1
--- !u!4 &8834341092014352794
Transform:
  m_ObjectHideFlags: 0
  m_CorrespondingSourceObject: {fileID: 0}
  m_PrefabInstance: {fileID: 0}
  m_PrefabAsset: {fileID: 0}
  m_GameObject: {fileID: 2119269913659021460}
  serializedVersion: 2
  m_LocalRotation: {x: -0.09548044, y: 0.1167657, z: -0.18851161, w: 0.9704188}
  m_LocalPosition: {x: -0.11497879, y: 0.017535094, z: 0.028469123}
  m_LocalScale: {x: 1, y: 1, z: 1}
  m_ConstrainProportionsScale: 0
  m_Children:
  - {fileID: 6447773834255398144}
  m_Father: {fileID: 5904285499249611371}
  m_LocalEulerAnglesHint: {x: 0, y: 0, z: 0}
--- !u!1 &2227733470689111204
GameObject:
  m_ObjectHideFlags: 0
  m_CorrespondingSourceObject: {fileID: 0}
  m_PrefabInstance: {fileID: 0}
  m_PrefabAsset: {fileID: 0}
  serializedVersion: 6
  m_Component:
  - component: {fileID: 4489363795076515194}
  - component: {fileID: 216199382444209070}
  m_Layer: 0
  m_Name: Sci_Fi_Character_08_Hat_01
  m_TagString: Untagged
  m_Icon: {fileID: 0}
  m_NavMeshLayer: 0
  m_StaticEditorFlags: 0
  m_IsActive: 1
--- !u!4 &4489363795076515194
Transform:
  m_ObjectHideFlags: 0
  m_CorrespondingSourceObject: {fileID: 0}
  m_PrefabInstance: {fileID: 0}
  m_PrefabAsset: {fileID: 0}
  m_GameObject: {fileID: 2227733470689111204}
  serializedVersion: 2
  m_LocalRotation: {x: -0.7071068, y: 0, z: -0, w: 0.7071068}
  m_LocalPosition: {x: -0, y: 0, z: 0}
  m_LocalScale: {x: 1, y: 1, z: 1}
  m_ConstrainProportionsScale: 0
  m_Children: []
  m_Father: {fileID: 8694017505111132838}
  m_LocalEulerAnglesHint: {x: 0, y: 0, z: 0}
--- !u!137 &216199382444209070
SkinnedMeshRenderer:
  m_ObjectHideFlags: 0
  m_CorrespondingSourceObject: {fileID: 0}
  m_PrefabInstance: {fileID: 0}
  m_PrefabAsset: {fileID: 0}
  m_GameObject: {fileID: 2227733470689111204}
  m_Enabled: 1
  m_CastShadows: 1
  m_ReceiveShadows: 1
  m_DynamicOccludee: 1
  m_StaticShadowCaster: 0
  m_MotionVectors: 1
  m_LightProbeUsage: 1
  m_ReflectionProbeUsage: 1
  m_RayTracingMode: 0
  m_RayTraceProcedural: 0
  m_RenderingLayerMask: 1
  m_RendererPriority: 0
  m_Materials:
  - {fileID: 2100000, guid: 98f00aa3cc0f77c4c95b86cc6a17cd05, type: 2}
  m_StaticBatchInfo:
    firstSubMesh: 0
    subMeshCount: 0
  m_StaticBatchRoot: {fileID: 0}
  m_ProbeAnchor: {fileID: 0}
  m_LightProbeVolumeOverride: {fileID: 0}
  m_ScaleInLightmap: 1
  m_ReceiveGI: 1
  m_PreserveUVs: 0
  m_IgnoreNormalsForChartDetection: 0
  m_ImportantGI: 0
  m_StitchLightmapSeams: 1
  m_SelectedEditorRenderState: 3
  m_MinimumChartSize: 4
  m_AutoUVMaxDistance: 0.5
  m_AutoUVMaxAngle: 89
  m_LightmapParameters: {fileID: 0}
  m_SortingLayerID: 0
  m_SortingLayer: 0
  m_SortingOrder: 0
  serializedVersion: 2
  m_Quality: 0
  m_UpdateWhenOffscreen: 0
  m_SkinnedMotionVectors: 1
  m_Mesh: {fileID: 6045973193748239551, guid: 26489012c8ee8af4d84156e5e5ac1035, type: 3}
  m_Bones:
  - {fileID: 6978241325947550956}
  m_BlendShapeWeights: []
  m_RootBone: {fileID: 6978241325947550956}
  m_AABB:
    m_Center: {x: -0.0993578, y: -0.025613394, z: -0.011048384}
    m_Extent: {x: 0.049345206, y: 0.10964207, z: 0.08964185}
  m_DirtyAABB: 0
--- !u!1 &2552794612383700337
GameObject:
  m_ObjectHideFlags: 0
  m_CorrespondingSourceObject: {fileID: 0}
  m_PrefabInstance: {fileID: 0}
  m_PrefabAsset: {fileID: 0}
  serializedVersion: 6
  m_Component:
  - component: {fileID: 4839938331595795960}
  m_Layer: 0
  m_Name: neck_01
  m_TagString: Untagged
  m_Icon: {fileID: 0}
  m_NavMeshLayer: 0
  m_StaticEditorFlags: 0
  m_IsActive: 1
--- !u!4 &4839938331595795960
Transform:
  m_ObjectHideFlags: 0
  m_CorrespondingSourceObject: {fileID: 0}
  m_PrefabInstance: {fileID: 0}
  m_PrefabAsset: {fileID: 0}
  m_GameObject: {fileID: 2552794612383700337}
  serializedVersion: 2
  m_LocalRotation: {x: 7.2372565e-16, y: -3.4782173e-15, z: 0.20371066, w: 0.97903115}
  m_LocalPosition: {x: -0.16558762, y: -0.0035532187, z: -5.966012e-10}
  m_LocalScale: {x: 1, y: 1, z: 1}
  m_ConstrainProportionsScale: 0
  m_Children:
  - {fileID: 6978241325947550956}
  m_Father: {fileID: 2685130160409489248}
  m_LocalEulerAnglesHint: {x: 0, y: 0, z: 0}
--- !u!1 &2700273455331452087
GameObject:
  m_ObjectHideFlags: 0
  m_CorrespondingSourceObject: {fileID: 0}
  m_PrefabInstance: {fileID: 0}
  m_PrefabAsset: {fileID: 0}
  serializedVersion: 6
  m_Component:
  - component: {fileID: 1414420940305117098}
  - component: {fileID: 7615322329682430455}
  m_Layer: 0
  m_Name: Sci_Fi_Character_08_Bag_04
  m_TagString: Untagged
  m_Icon: {fileID: 0}
  m_NavMeshLayer: 0
  m_StaticEditorFlags: 0
  m_IsActive: 1
--- !u!4 &1414420940305117098
Transform:
  m_ObjectHideFlags: 0
  m_CorrespondingSourceObject: {fileID: 0}
  m_PrefabInstance: {fileID: 0}
  m_PrefabAsset: {fileID: 0}
  m_GameObject: {fileID: 2700273455331452087}
  serializedVersion: 2
  m_LocalRotation: {x: -0.7071068, y: 0, z: -0, w: 0.7071068}
  m_LocalPosition: {x: -0, y: 0, z: 0}
  m_LocalScale: {x: 1, y: 1, z: 1}
  m_ConstrainProportionsScale: 0
  m_Children: []
  m_Father: {fileID: 8694017505111132838}
  m_LocalEulerAnglesHint: {x: 0, y: 0, z: 0}
--- !u!137 &7615322329682430455
SkinnedMeshRenderer:
  m_ObjectHideFlags: 0
  m_CorrespondingSourceObject: {fileID: 0}
  m_PrefabInstance: {fileID: 0}
  m_PrefabAsset: {fileID: 0}
  m_GameObject: {fileID: 2700273455331452087}
  m_Enabled: 1
  m_CastShadows: 1
  m_ReceiveShadows: 1
  m_DynamicOccludee: 1
  m_StaticShadowCaster: 0
  m_MotionVectors: 1
  m_LightProbeUsage: 1
  m_ReflectionProbeUsage: 1
  m_RayTracingMode: 0
  m_RayTraceProcedural: 0
  m_RenderingLayerMask: 1
  m_RendererPriority: 0
  m_Materials:
  - {fileID: 2100000, guid: 98f00aa3cc0f77c4c95b86cc6a17cd05, type: 2}
  m_StaticBatchInfo:
    firstSubMesh: 0
    subMeshCount: 0
  m_StaticBatchRoot: {fileID: 0}
  m_ProbeAnchor: {fileID: 0}
  m_LightProbeVolumeOverride: {fileID: 0}
  m_ScaleInLightmap: 1
  m_ReceiveGI: 1
  m_PreserveUVs: 0
  m_IgnoreNormalsForChartDetection: 0
  m_ImportantGI: 0
  m_StitchLightmapSeams: 1
  m_SelectedEditorRenderState: 3
  m_MinimumChartSize: 4
  m_AutoUVMaxDistance: 0.5
  m_AutoUVMaxAngle: 89
  m_LightmapParameters: {fileID: 0}
  m_SortingLayerID: 0
  m_SortingLayer: 0
  m_SortingOrder: 0
  serializedVersion: 2
  m_Quality: 0
  m_UpdateWhenOffscreen: 0
  m_SkinnedMotionVectors: 1
  m_Mesh: {fileID: -7614489330804583069, guid: 26489012c8ee8af4d84156e5e5ac1035, type: 3}
  m_Bones:
  - {fileID: 4908912505468820689}
  - {fileID: 5548732878041141538}
  m_BlendShapeWeights: []
  m_RootBone: {fileID: 4908912505468820689}
  m_AABB:
    m_Center: {x: -0.12894903, y: -0.04831279, z: 0.14146256}
    m_Extent: {x: 0.11388992, y: 0.0911415, z: 0.07911949}
  m_DirtyAABB: 0
--- !u!1 &2712240080106449082
GameObject:
  m_ObjectHideFlags: 0
  m_CorrespondingSourceObject: {fileID: 0}
  m_PrefabInstance: {fileID: 0}
  m_PrefabAsset: {fileID: 0}
  serializedVersion: 6
  m_Component:
  - component: {fileID: 4046249190106680677}
  m_Layer: 0
  m_Name: thumb_02_l
  m_TagString: Untagged
  m_Icon: {fileID: 0}
  m_NavMeshLayer: 0
  m_StaticEditorFlags: 0
  m_IsActive: 1
--- !u!4 &4046249190106680677
Transform:
  m_ObjectHideFlags: 0
  m_CorrespondingSourceObject: {fileID: 0}
  m_PrefabInstance: {fileID: 0}
  m_PrefabAsset: {fileID: 0}
  m_GameObject: {fileID: 2712240080106449082}
  serializedVersion: 2
  m_LocalRotation: {x: 0.0026046475, y: -0.08679848, z: -0.13014114, w: 0.98768544}
  m_LocalPosition: {x: -0.03869667, y: 0.000000038146972, z: 0.00000015258789}
  m_LocalScale: {x: 1, y: 1, z: 1}
  m_ConstrainProportionsScale: 0
  m_Children:
  - {fileID: 3984036698460480944}
  m_Father: {fileID: 3692242892422369333}
  m_LocalEulerAnglesHint: {x: 0, y: 0, z: 0}
--- !u!1 &3009592028805589095
GameObject:
  m_ObjectHideFlags: 0
  m_CorrespondingSourceObject: {fileID: 0}
  m_PrefabInstance: {fileID: 0}
  m_PrefabAsset: {fileID: 0}
  serializedVersion: 6
  m_Component:
  - component: {fileID: 4199363159358980996}
  m_Layer: 0
  m_Name: pinky_01_r
  m_TagString: Untagged
  m_Icon: {fileID: 0}
  m_NavMeshLayer: 0
  m_StaticEditorFlags: 0
  m_IsActive: 1
--- !u!4 &4199363159358980996
Transform:
  m_ObjectHideFlags: 0
  m_CorrespondingSourceObject: {fileID: 0}
  m_PrefabInstance: {fileID: 0}
  m_PrefabAsset: {fileID: 0}
  m_GameObject: {fileID: 3009592028805589095}
  serializedVersion: 2
  m_LocalRotation: {x: -0.12953763, y: 0.18789688, z: -0.14421308, w: 0.96286935}
  m_LocalPosition: {x: 0.10140594, y: -0.022633513, z: -0.04643095}
  m_LocalScale: {x: 1, y: 1, z: 1}
  m_ConstrainProportionsScale: 0
  m_Children:
  - {fileID: 8708070613816719814}
  m_Father: {fileID: 2326417097526803833}
  m_LocalEulerAnglesHint: {x: 0, y: 0, z: 0}
--- !u!1 &3132973201899152485
GameObject:
  m_ObjectHideFlags: 0
  m_CorrespondingSourceObject: {fileID: 0}
  m_PrefabInstance: {fileID: 0}
  m_PrefabAsset: {fileID: 0}
  serializedVersion: 6
  m_Component:
  - component: {fileID: 3163058686169513304}
  m_Layer: 0
  m_Name: index_01_r
  m_TagString: Untagged
  m_Icon: {fileID: 0}
  m_NavMeshLayer: 0
  m_StaticEditorFlags: 0
  m_IsActive: 1
--- !u!4 &3163058686169513304
Transform:
  m_ObjectHideFlags: 0
  m_CorrespondingSourceObject: {fileID: 0}
  m_PrefabInstance: {fileID: 0}
  m_PrefabAsset: {fileID: 0}
  m_GameObject: {fileID: 3132973201899152485}
  serializedVersion: 2
  m_LocalRotation: {x: 0.13330449, y: 0.003180139, z: -0.22317979, w: 0.96561414}
  m_LocalPosition: {x: 0.12067932, y: -0.017637176, z: 0.021094283}
  m_LocalScale: {x: 1, y: 1, z: 1}
  m_ConstrainProportionsScale: 0
  m_Children:
  - {fileID: 6232328529861403691}
  m_Father: {fileID: 2326417097526803833}
  m_LocalEulerAnglesHint: {x: 0, y: 0, z: 0}
--- !u!1 &3152363847234601551
GameObject:
  m_ObjectHideFlags: 0
  m_CorrespondingSourceObject: {fileID: 0}
  m_PrefabInstance: {fileID: 0}
  m_PrefabAsset: {fileID: 0}
  serializedVersion: 6
  m_Component:
  - component: {fileID: 8460462807487112428}
  m_Layer: 0
  m_Name: thumb_02_r
  m_TagString: Untagged
  m_Icon: {fileID: 0}
  m_NavMeshLayer: 0
  m_StaticEditorFlags: 0
  m_IsActive: 1
--- !u!4 &8460462807487112428
Transform:
  m_ObjectHideFlags: 0
  m_CorrespondingSourceObject: {fileID: 0}
  m_PrefabInstance: {fileID: 0}
  m_PrefabAsset: {fileID: 0}
  m_GameObject: {fileID: 3152363847234601551}
  serializedVersion: 2
  m_LocalRotation: {x: 0.002604723, y: -0.08679851, z: -0.13014118, w: 0.98768544}
  m_LocalPosition: {x: 0.03869564, y: 0.0000011444091, z: 0.00000045776366}
  m_LocalScale: {x: 1, y: 1, z: 1}
  m_ConstrainProportionsScale: 0
  m_Children:
  - {fileID: 864772291079846865}
  m_Father: {fileID: 6450773108082417335}
  m_LocalEulerAnglesHint: {x: 0, y: 0, z: 0}
--- !u!1 &3194105575401402101
GameObject:
  m_ObjectHideFlags: 0
  m_CorrespondingSourceObject: {fileID: 0}
  m_PrefabInstance: {fileID: 0}
  m_PrefabAsset: {fileID: 0}
  serializedVersion: 6
  m_Component:
  - component: {fileID: 9031606283508593182}
  m_Layer: 0
  m_Name: pinky_02_l
  m_TagString: Untagged
  m_Icon: {fileID: 0}
  m_NavMeshLayer: 0
  m_StaticEditorFlags: 0
  m_IsActive: 1
--- !u!4 &9031606283508593182
Transform:
  m_ObjectHideFlags: 0
  m_CorrespondingSourceObject: {fileID: 0}
  m_PrefabInstance: {fileID: 0}
  m_PrefabAsset: {fileID: 0}
  m_GameObject: {fileID: 3194105575401402101}
  serializedVersion: 2
  m_LocalRotation: {x: 0.010359716, y: 0.010519375, z: -0.09774821, w: 0.99510163}
  m_LocalPosition: {x: -0.03570995, y: 0.00000015258789, z: 0}
  m_LocalScale: {x: 1, y: 1, z: 1}
  m_ConstrainProportionsScale: 0
  m_Children:
  - {fileID: 9055406925812461625}
  m_Father: {fileID: 2982948472221613541}
  m_LocalEulerAnglesHint: {x: 0, y: 0, z: 0}
--- !u!1 &3377014099096127679
GameObject:
  m_ObjectHideFlags: 0
  m_CorrespondingSourceObject: {fileID: 0}
  m_PrefabInstance: {fileID: 0}
  m_PrefabAsset: {fileID: 0}
  serializedVersion: 6
  m_Component:
  - component: {fileID: 8207619810333712862}
  - component: {fileID: 6717314590906866270}
  m_Layer: 0
  m_Name: Sci_Fi_Character_08_Bag_01
  m_TagString: Untagged
  m_Icon: {fileID: 0}
  m_NavMeshLayer: 0
  m_StaticEditorFlags: 0
  m_IsActive: 1
--- !u!4 &8207619810333712862
Transform:
  m_ObjectHideFlags: 0
  m_CorrespondingSourceObject: {fileID: 0}
  m_PrefabInstance: {fileID: 0}
  m_PrefabAsset: {fileID: 0}
  m_GameObject: {fileID: 3377014099096127679}
  serializedVersion: 2
  m_LocalRotation: {x: -0.7071068, y: 0, z: -0, w: 0.7071068}
  m_LocalPosition: {x: -0, y: 0, z: 0}
  m_LocalScale: {x: 1, y: 1, z: 1}
  m_ConstrainProportionsScale: 0
  m_Children: []
  m_Father: {fileID: 8694017505111132838}
  m_LocalEulerAnglesHint: {x: 0, y: 0, z: 0}
--- !u!137 &6717314590906866270
SkinnedMeshRenderer:
  m_ObjectHideFlags: 0
  m_CorrespondingSourceObject: {fileID: 0}
  m_PrefabInstance: {fileID: 0}
  m_PrefabAsset: {fileID: 0}
  m_GameObject: {fileID: 3377014099096127679}
  m_Enabled: 1
  m_CastShadows: 1
  m_ReceiveShadows: 1
  m_DynamicOccludee: 1
  m_StaticShadowCaster: 0
  m_MotionVectors: 1
  m_LightProbeUsage: 1
  m_ReflectionProbeUsage: 1
  m_RayTracingMode: 0
  m_RayTraceProcedural: 0
  m_RenderingLayerMask: 1
  m_RendererPriority: 0
  m_Materials:
  - {fileID: 2100000, guid: 98f00aa3cc0f77c4c95b86cc6a17cd05, type: 2}
  m_StaticBatchInfo:
    firstSubMesh: 0
    subMeshCount: 0
  m_StaticBatchRoot: {fileID: 0}
  m_ProbeAnchor: {fileID: 0}
  m_LightProbeVolumeOverride: {fileID: 0}
  m_ScaleInLightmap: 1
  m_ReceiveGI: 1
  m_PreserveUVs: 0
  m_IgnoreNormalsForChartDetection: 0
  m_ImportantGI: 0
  m_StitchLightmapSeams: 1
  m_SelectedEditorRenderState: 3
  m_MinimumChartSize: 4
  m_AutoUVMaxDistance: 0.5
  m_AutoUVMaxAngle: 89
  m_LightmapParameters: {fileID: 0}
  m_SortingLayerID: 0
  m_SortingLayer: 0
  m_SortingOrder: 0
  serializedVersion: 2
  m_Quality: 0
  m_UpdateWhenOffscreen: 0
  m_SkinnedMotionVectors: 1
  m_Mesh: {fileID: 6131444462087076102, guid: 26489012c8ee8af4d84156e5e5ac1035, type: 3}
  m_Bones:
  - {fileID: 6295513038251650356}
  - {fileID: 7005996462175678975}
  - {fileID: 7400218048703543253}
  - {fileID: 7267573791668023508}
  m_BlendShapeWeights: []
  m_RootBone: {fileID: 7005996462175678975}
  m_AABB:
    m_Center: {x: -0.09711631, y: -0.0022133738, z: -0.20987922}
    m_Extent: {x: 0.09453468, y: 0.15508729, z: 0.06068206}
  m_DirtyAABB: 0
--- !u!1 &3575850617455392743
GameObject:
  m_ObjectHideFlags: 0
  m_CorrespondingSourceObject: {fileID: 0}
  m_PrefabInstance: {fileID: 0}
  m_PrefabAsset: {fileID: 0}
  serializedVersion: 6
  m_Component:
  - component: {fileID: 3649463297760210602}
  m_Layer: 0
  m_Name: middle_01_l
  m_TagString: Untagged
  m_Icon: {fileID: 0}
  m_NavMeshLayer: 0
  m_StaticEditorFlags: 0
  m_IsActive: 1
--- !u!4 &3649463297760210602
Transform:
  m_ObjectHideFlags: 0
  m_CorrespondingSourceObject: {fileID: 0}
  m_PrefabInstance: {fileID: 0}
  m_PrefabAsset: {fileID: 0}
  m_GameObject: {fileID: 3575850617455392743}
  serializedVersion: 2
  m_LocalRotation: {x: 0.028522147, y: 0.056873895, z: -0.19848494, w: 0.97803664}
  m_LocalPosition: {x: -0.12244286, y: 0.012936554, z: 0.0057116128}
  m_LocalScale: {x: 1, y: 1, z: 1}
  m_ConstrainProportionsScale: 0
  m_Children:
  - {fileID: 4926508007500890935}
  m_Father: {fileID: 5904285499249611371}
  m_LocalEulerAnglesHint: {x: 0, y: 0, z: 0}
--- !u!1 &3741270685043026894
GameObject:
  m_ObjectHideFlags: 0
  m_CorrespondingSourceObject: {fileID: 0}
  m_PrefabInstance: {fileID: 0}
  m_PrefabAsset: {fileID: 0}
  serializedVersion: 6
  m_Component:
  - component: {fileID: 5549206604224710597}
  - component: {fileID: 267815961429860977}
  m_Layer: 0
  m_Name: Sci_Fi_Character_08_Head_02_Details
  m_TagString: Untagged
  m_Icon: {fileID: 0}
  m_NavMeshLayer: 0
  m_StaticEditorFlags: 0
  m_IsActive: 0
--- !u!4 &5549206604224710597
Transform:
  m_ObjectHideFlags: 0
  m_CorrespondingSourceObject: {fileID: 0}
  m_PrefabInstance: {fileID: 0}
  m_PrefabAsset: {fileID: 0}
  m_GameObject: {fileID: 3741270685043026894}
  serializedVersion: 2
  m_LocalRotation: {x: -0.7071068, y: 0, z: -0, w: 0.7071068}
  m_LocalPosition: {x: -0, y: 0, z: 0}
  m_LocalScale: {x: 1, y: 1, z: 1}
  m_ConstrainProportionsScale: 0
  m_Children: []
  m_Father: {fileID: 8694017505111132838}
  m_LocalEulerAnglesHint: {x: 0, y: 0, z: 0}
--- !u!137 &267815961429860977
SkinnedMeshRenderer:
  m_ObjectHideFlags: 0
  m_CorrespondingSourceObject: {fileID: 0}
  m_PrefabInstance: {fileID: 0}
  m_PrefabAsset: {fileID: 0}
  m_GameObject: {fileID: 3741270685043026894}
  m_Enabled: 1
  m_CastShadows: 1
  m_ReceiveShadows: 1
  m_DynamicOccludee: 1
  m_StaticShadowCaster: 0
  m_MotionVectors: 1
  m_LightProbeUsage: 1
  m_ReflectionProbeUsage: 1
  m_RayTracingMode: 0
  m_RayTraceProcedural: 0
  m_RenderingLayerMask: 1
  m_RendererPriority: 0
  m_Materials:
  - {fileID: 2100000, guid: 3944885e2ed7e67418a682b36827e6b2, type: 2}
  m_StaticBatchInfo:
    firstSubMesh: 0
    subMeshCount: 0
  m_StaticBatchRoot: {fileID: 0}
  m_ProbeAnchor: {fileID: 0}
  m_LightProbeVolumeOverride: {fileID: 0}
  m_ScaleInLightmap: 1
  m_ReceiveGI: 1
  m_PreserveUVs: 0
  m_IgnoreNormalsForChartDetection: 0
  m_ImportantGI: 0
  m_StitchLightmapSeams: 1
  m_SelectedEditorRenderState: 3
  m_MinimumChartSize: 4
  m_AutoUVMaxDistance: 0.5
  m_AutoUVMaxAngle: 89
  m_LightmapParameters: {fileID: 0}
  m_SortingLayerID: 0
  m_SortingLayer: 0
  m_SortingOrder: 0
  serializedVersion: 2
  m_Quality: 0
  m_UpdateWhenOffscreen: 0
  m_SkinnedMotionVectors: 1
  m_Mesh: {fileID: 495476794350817271, guid: 26489012c8ee8af4d84156e5e5ac1035, type: 3}
  m_Bones:
  - {fileID: 6978241325947550956}
  m_BlendShapeWeights: []
  m_RootBone: {fileID: 6978241325947550956}
  m_AABB:
    m_Center: {x: -0.03546864, y: -0.013133176, z: -0.00034683198}
    m_Extent: {x: 0.033348385, y: 0.09487051, z: 0.078969955}
  m_DirtyAABB: 0
--- !u!1 &3884193226477018597
GameObject:
  m_ObjectHideFlags: 0
  m_CorrespondingSourceObject: {fileID: 0}
  m_PrefabInstance: {fileID: 0}
  m_PrefabAsset: {fileID: 0}
  serializedVersion: 6
  m_Component:
  - component: {fileID: 9085869274335169763}
  m_Layer: 0
  m_Name: ball_l
  m_TagString: Untagged
  m_Icon: {fileID: 0}
  m_NavMeshLayer: 0
  m_StaticEditorFlags: 0
  m_IsActive: 1
--- !u!4 &9085869274335169763
Transform:
  m_ObjectHideFlags: 0
  m_CorrespondingSourceObject: {fileID: 0}
  m_PrefabInstance: {fileID: 0}
  m_PrefabAsset: {fileID: 0}
  m_GameObject: {fileID: 3884193226477018597}
  serializedVersion: 2
  m_LocalRotation: {x: 0.00008008022, y: -0.000029595034, z: 0.7186339, w: 0.6953886}
  m_LocalPosition: {x: 0.104798876, y: -0.14544067, z: -0.00012496948}
  m_LocalScale: {x: 1, y: 1, z: 1}
  m_ConstrainProportionsScale: 0
  m_Children: []
  m_Father: {fileID: 4724628722835533865}
  m_LocalEulerAnglesHint: {x: 0, y: 0, z: 0}
--- !u!1 &3900801438202235056
GameObject:
  m_ObjectHideFlags: 0
  m_CorrespondingSourceObject: {fileID: 0}
  m_PrefabInstance: {fileID: 0}
  m_PrefabAsset: {fileID: 0}
  serializedVersion: 6
  m_Component:
  - component: {fileID: 7285856547109325663}
  m_Layer: 0
  m_Name: ring_03_l
  m_TagString: Untagged
  m_Icon: {fileID: 0}
  m_NavMeshLayer: 0
  m_StaticEditorFlags: 0
  m_IsActive: 1
--- !u!4 &7285856547109325663
Transform:
  m_ObjectHideFlags: 0
  m_CorrespondingSourceObject: {fileID: 0}
  m_PrefabInstance: {fileID: 0}
  m_PrefabAsset: {fileID: 0}
  m_GameObject: {fileID: 3900801438202235056}
  serializedVersion: 2
  m_LocalRotation: {x: -0.00019888638, y: -0.026257781, z: 0.11221289, w: 0.9933372}
  m_LocalPosition: {x: -0.034766387, y: -0.00000015258789, z: -0.000000019073486}
  m_LocalScale: {x: 1, y: 1, z: 1}
  m_ConstrainProportionsScale: 0
  m_Children: []
  m_Father: {fileID: 6447773834255398144}
  m_LocalEulerAnglesHint: {x: 0, y: 0, z: 0}
--- !u!1 &4057431709759345485
GameObject:
  m_ObjectHideFlags: 0
  m_CorrespondingSourceObject: {fileID: 0}
  m_PrefabInstance: {fileID: 0}
  m_PrefabAsset: {fileID: 0}
  serializedVersion: 6
  m_Component:
  - component: {fileID: 4153273177926159571}
  m_Layer: 0
  m_Name: ring_02_r
  m_TagString: Untagged
  m_Icon: {fileID: 0}
  m_NavMeshLayer: 0
  m_StaticEditorFlags: 0
  m_IsActive: 1
--- !u!4 &4153273177926159571
Transform:
  m_ObjectHideFlags: 0
  m_CorrespondingSourceObject: {fileID: 0}
  m_PrefabInstance: {fileID: 0}
  m_PrefabAsset: {fileID: 0}
  m_GameObject: {fileID: 4057431709759345485}
  serializedVersion: 2
  m_LocalRotation: {x: 0.004301102, y: 0.014167513, z: -0.11596316, w: 0.9931432}
  m_LocalPosition: {x: 0.04429863, y: 0.0000009155273, z: -0.00000017166137}
  m_LocalScale: {x: 1, y: 1, z: 1}
  m_ConstrainProportionsScale: 0
  m_Children:
  - {fileID: 2809504337931338873}
  m_Father: {fileID: 6518292001187454820}
  m_LocalEulerAnglesHint: {x: 0, y: 0, z: 0}
--- !u!1 &4099001550369745391
GameObject:
  m_ObjectHideFlags: 0
  m_CorrespondingSourceObject: {fileID: 0}
  m_PrefabInstance: {fileID: 0}
  m_PrefabAsset: {fileID: 0}
  serializedVersion: 6
  m_Component:
  - component: {fileID: 1430332986117914754}
  m_Layer: 0
  m_Name: pinky_03_r
  m_TagString: Untagged
  m_Icon: {fileID: 0}
  m_NavMeshLayer: 0
  m_StaticEditorFlags: 0
  m_IsActive: 1
--- !u!4 &1430332986117914754
Transform:
  m_ObjectHideFlags: 0
  m_CorrespondingSourceObject: {fileID: 0}
  m_PrefabInstance: {fileID: 0}
  m_PrefabAsset: {fileID: 0}
  m_GameObject: {fileID: 4099001550369745391}
  serializedVersion: 2
  m_LocalRotation: {x: 0.003580967, y: -0.033796374, z: -0.008930318, w: 0.99938244}
  m_LocalPosition: {x: 0.029854354, y: 0.0000030517576, z: -0.00000036239624}
  m_LocalScale: {x: 1, y: 1, z: 1}
  m_ConstrainProportionsScale: 0
  m_Children: []
  m_Father: {fileID: 8708070613816719814}
  m_LocalEulerAnglesHint: {x: 0, y: 0, z: 0}
--- !u!1 &4102709188180817795
GameObject:
  m_ObjectHideFlags: 0
  m_CorrespondingSourceObject: {fileID: 0}
  m_PrefabInstance: {fileID: 0}
  m_PrefabAsset: {fileID: 0}
  serializedVersion: 6
  m_Component:
  - component: {fileID: 9055406925812461625}
  m_Layer: 0
  m_Name: pinky_03_l
  m_TagString: Untagged
  m_Icon: {fileID: 0}
  m_NavMeshLayer: 0
  m_StaticEditorFlags: 0
  m_IsActive: 1
--- !u!4 &9055406925812461625
Transform:
  m_ObjectHideFlags: 0
  m_CorrespondingSourceObject: {fileID: 0}
  m_PrefabInstance: {fileID: 0}
  m_PrefabAsset: {fileID: 0}
  m_GameObject: {fileID: 4102709188180817795}
  serializedVersion: 2
  m_LocalRotation: {x: 0.0035809726, y: -0.03379641, z: -0.00893036, w: 0.99938244}
  m_LocalPosition: {x: -0.029856224, y: 0, z: -0.000000038146972}
  m_LocalScale: {x: 1, y: 1, z: 1}
  m_ConstrainProportionsScale: 0
  m_Children: []
  m_Father: {fileID: 9031606283508593182}
  m_LocalEulerAnglesHint: {x: 0, y: 0, z: 0}
--- !u!1 &4110528734171314581
GameObject:
  m_ObjectHideFlags: 0
  m_CorrespondingSourceObject: {fileID: 0}
  m_PrefabInstance: {fileID: 0}
  m_PrefabAsset: {fileID: 0}
  serializedVersion: 6
  m_Component:
  - component: {fileID: 4106119257031642895}
  m_Layer: 0
  m_Name: foot_r
  m_TagString: Untagged
  m_Icon: {fileID: 0}
  m_NavMeshLayer: 0
  m_StaticEditorFlags: 0
  m_IsActive: 1
--- !u!4 &4106119257031642895
Transform:
  m_ObjectHideFlags: 0
  m_CorrespondingSourceObject: {fileID: 0}
  m_PrefabInstance: {fileID: 0}
  m_PrefabAsset: {fileID: 0}
  m_GameObject: {fileID: 4110528734171314581}
  serializedVersion: 2
  m_LocalRotation: {x: -0.0058857515, y: -0.03199129, z: -0.07035477, w: 0.9969916}
  m_LocalPosition: {x: -0.40196812, y: 0.000000028610229, z: -0.000000095367426}
  m_LocalScale: {x: 1, y: 1, z: 1}
  m_ConstrainProportionsScale: 0
  m_Children:
  - {fileID: 986945781822757406}
  m_Father: {fileID: 5548732878041141538}
  m_LocalEulerAnglesHint: {x: 0, y: 0, z: 0}
--- !u!1 &4114878256397177488
GameObject:
  m_ObjectHideFlags: 0
  m_CorrespondingSourceObject: {fileID: 0}
  m_PrefabInstance: {fileID: 0}
  m_PrefabAsset: {fileID: 0}
  serializedVersion: 6
  m_Component:
  - component: {fileID: 2809504337931338873}
  m_Layer: 0
  m_Name: ring_03_r
  m_TagString: Untagged
  m_Icon: {fileID: 0}
  m_NavMeshLayer: 0
  m_StaticEditorFlags: 0
  m_IsActive: 1
--- !u!4 &2809504337931338873
Transform:
  m_ObjectHideFlags: 0
  m_CorrespondingSourceObject: {fileID: 0}
  m_PrefabInstance: {fileID: 0}
  m_PrefabAsset: {fileID: 0}
  m_GameObject: {fileID: 4114878256397177488}
  serializedVersion: 2
  m_LocalRotation: {x: -0.00019888289, y: -0.02625778, z: 0.11221288, w: 0.9933372}
  m_LocalPosition: {x: 0.034766614, y: 0.0000007629394, z: -0.000000028610229}
  m_LocalScale: {x: 1, y: 1, z: 1}
  m_ConstrainProportionsScale: 0
  m_Children: []
  m_Father: {fileID: 4153273177926159571}
  m_LocalEulerAnglesHint: {x: 0, y: 0, z: 0}
--- !u!1 &4700541556870960111
GameObject:
  m_ObjectHideFlags: 0
  m_CorrespondingSourceObject: {fileID: 0}
  m_PrefabInstance: {fileID: 0}
  m_PrefabAsset: {fileID: 0}
  serializedVersion: 6
  m_Component:
  - component: {fileID: 7400218048703543253}
  m_Layer: 0
  m_Name: spine_01
  m_TagString: Untagged
  m_Icon: {fileID: 0}
  m_NavMeshLayer: 0
  m_StaticEditorFlags: 0
  m_IsActive: 1
--- !u!4 &7400218048703543253
Transform:
  m_ObjectHideFlags: 0
  m_CorrespondingSourceObject: {fileID: 0}
  m_PrefabInstance: {fileID: 0}
  m_PrefabAsset: {fileID: 0}
  m_GameObject: {fileID: 4700541556870960111}
  serializedVersion: 2
  m_LocalRotation: {x: -1.9530694e-12, y: 1.2352853e-13, z: 0.062388644, w: 0.99805194}
  m_LocalPosition: {x: -0.10808876, y: -0.00851415, z: 6.366463e-14}
  m_LocalScale: {x: 1, y: 1, z: 1}
  m_ConstrainProportionsScale: 0
  m_Children:
  - {fileID: 8062854723093809935}
  m_Father: {fileID: 7005996462175678975}
  m_LocalEulerAnglesHint: {x: 0, y: 0, z: 0}
--- !u!1 &4712697331311943441
GameObject:
  m_ObjectHideFlags: 0
  m_CorrespondingSourceObject: {fileID: 0}
  m_PrefabInstance: {fileID: 0}
  m_PrefabAsset: {fileID: 0}
  serializedVersion: 6
  m_Component:
  - component: {fileID: 986945781822757406}
  m_Layer: 0
  m_Name: ball_r
  m_TagString: Untagged
  m_Icon: {fileID: 0}
  m_NavMeshLayer: 0
  m_StaticEditorFlags: 0
  m_IsActive: 1
--- !u!4 &986945781822757406
Transform:
  m_ObjectHideFlags: 0
  m_CorrespondingSourceObject: {fileID: 0}
  m_PrefabInstance: {fileID: 0}
  m_PrefabAsset: {fileID: 0}
  m_GameObject: {fileID: 4712697331311943441}
  serializedVersion: 2
  m_LocalRotation: {x: 0.000080073405, y: -0.000029591032, z: 0.7186339, w: 0.6953886}
  m_LocalPosition: {x: -0.104798675, y: 0.1454401, z: 0.00012495041}
  m_LocalScale: {x: 1, y: 1, z: 1}
  m_ConstrainProportionsScale: 0
  m_Children: []
  m_Father: {fileID: 4106119257031642895}
  m_LocalEulerAnglesHint: {x: 0, y: 0, z: 0}
--- !u!1 &4734635310125052261
GameObject:
  m_ObjectHideFlags: 0
  m_CorrespondingSourceObject: {fileID: 0}
  m_PrefabInstance: {fileID: 0}
  m_PrefabAsset: {fileID: 0}
  serializedVersion: 6
  m_Component:
  - component: {fileID: 1587611411534132807}
  - component: {fileID: 4572723154477406219}
  m_Layer: 0
  m_Name: Sci_Fi_Character_08_Hat_02
  m_TagString: Untagged
  m_Icon: {fileID: 0}
  m_NavMeshLayer: 0
  m_StaticEditorFlags: 0
  m_IsActive: 0
--- !u!4 &1587611411534132807
Transform:
  m_ObjectHideFlags: 0
  m_CorrespondingSourceObject: {fileID: 0}
  m_PrefabInstance: {fileID: 0}
  m_PrefabAsset: {fileID: 0}
  m_GameObject: {fileID: 4734635310125052261}
  serializedVersion: 2
  m_LocalRotation: {x: -0.7071068, y: 0, z: -0, w: 0.7071068}
  m_LocalPosition: {x: -0, y: 0, z: 0}
  m_LocalScale: {x: 1, y: 1, z: 1}
  m_ConstrainProportionsScale: 0
  m_Children: []
  m_Father: {fileID: 8694017505111132838}
  m_LocalEulerAnglesHint: {x: 0, y: 0, z: 0}
--- !u!137 &4572723154477406219
SkinnedMeshRenderer:
  m_ObjectHideFlags: 0
  m_CorrespondingSourceObject: {fileID: 0}
  m_PrefabInstance: {fileID: 0}
  m_PrefabAsset: {fileID: 0}
  m_GameObject: {fileID: 4734635310125052261}
  m_Enabled: 1
  m_CastShadows: 1
  m_ReceiveShadows: 1
  m_DynamicOccludee: 1
  m_StaticShadowCaster: 0
  m_MotionVectors: 1
  m_LightProbeUsage: 1
  m_ReflectionProbeUsage: 1
  m_RayTracingMode: 0
  m_RayTraceProcedural: 0
  m_RenderingLayerMask: 1
  m_RendererPriority: 0
  m_Materials:
  - {fileID: 2100000, guid: dbab803476607b44eb7b341e6321ee22, type: 2}
  m_StaticBatchInfo:
    firstSubMesh: 0
    subMeshCount: 0
  m_StaticBatchRoot: {fileID: 0}
  m_ProbeAnchor: {fileID: 0}
  m_LightProbeVolumeOverride: {fileID: 0}
  m_ScaleInLightmap: 1
  m_ReceiveGI: 1
  m_PreserveUVs: 0
  m_IgnoreNormalsForChartDetection: 0
  m_ImportantGI: 0
  m_StitchLightmapSeams: 1
  m_SelectedEditorRenderState: 3
  m_MinimumChartSize: 4
  m_AutoUVMaxDistance: 0.5
  m_AutoUVMaxAngle: 89
  m_LightmapParameters: {fileID: 0}
  m_SortingLayerID: 0
  m_SortingLayer: 0
  m_SortingOrder: 0
  serializedVersion: 2
  m_Quality: 0
  m_UpdateWhenOffscreen: 0
  m_SkinnedMotionVectors: 1
  m_Mesh: {fileID: -1029484156161858051, guid: 26489012c8ee8af4d84156e5e5ac1035, type: 3}
  m_Bones:
  - {fileID: 6978241325947550956}
  m_BlendShapeWeights: []
  m_RootBone: {fileID: 6978241325947550956}
  m_AABB:
    m_Center: {x: -0.10494216, y: -0.014534518, z: -0.010326706}
    m_Extent: {x: 0.05071683, y: 0.10692665, z: 0.09219434}
  m_DirtyAABB: 0
--- !u!1 &4903325099270926750
GameObject:
  m_ObjectHideFlags: 0
  m_CorrespondingSourceObject: {fileID: 0}
  m_PrefabInstance: {fileID: 0}
  m_PrefabAsset: {fileID: 0}
  serializedVersion: 6
  m_Component:
  - component: {fileID: 4926508007500890935}
  m_Layer: 0
  m_Name: middle_02_l
  m_TagString: Untagged
  m_Icon: {fileID: 0}
  m_NavMeshLayer: 0
  m_StaticEditorFlags: 0
  m_IsActive: 1
--- !u!4 &4926508007500890935
Transform:
  m_ObjectHideFlags: 0
  m_CorrespondingSourceObject: {fileID: 0}
  m_PrefabInstance: {fileID: 0}
  m_PrefabAsset: {fileID: 0}
  m_GameObject: {fileID: 4903325099270926750}
  serializedVersion: 2
  m_LocalRotation: {x: -0.01862893, y: -0.007972194, z: -0.10711657, w: 0.99404}
  m_LocalPosition: {x: -0.04640377, y: 0.00000030517577, z: 0}
  m_LocalScale: {x: 1, y: 1, z: 1}
  m_ConstrainProportionsScale: 0
  m_Children:
  - {fileID: 1436393393371547278}
  m_Father: {fileID: 3649463297760210602}
  m_LocalEulerAnglesHint: {x: 0, y: 0, z: 0}
--- !u!1 &5134837558824154976
GameObject:
  m_ObjectHideFlags: 0
  m_CorrespondingSourceObject: {fileID: 0}
  m_PrefabInstance: {fileID: 0}
  m_PrefabAsset: {fileID: 0}
  serializedVersion: 6
  m_Component:
  - component: {fileID: 3626918090178399461}
  - component: {fileID: 9124484211764313178}
  m_Layer: 0
  m_Name: Sci_Fi_Character_08_Bag_03
  m_TagString: Untagged
  m_Icon: {fileID: 0}
  m_NavMeshLayer: 0
  m_StaticEditorFlags: 0
  m_IsActive: 1
--- !u!4 &3626918090178399461
Transform:
  m_ObjectHideFlags: 0
  m_CorrespondingSourceObject: {fileID: 0}
  m_PrefabInstance: {fileID: 0}
  m_PrefabAsset: {fileID: 0}
  m_GameObject: {fileID: 5134837558824154976}
  serializedVersion: 2
  m_LocalRotation: {x: -0.7071068, y: 0, z: -0, w: 0.7071068}
  m_LocalPosition: {x: -0, y: 0, z: 0}
  m_LocalScale: {x: 1, y: 1, z: 1}
  m_ConstrainProportionsScale: 0
  m_Children: []
  m_Father: {fileID: 8694017505111132838}
  m_LocalEulerAnglesHint: {x: 0, y: 0, z: 0}
--- !u!137 &9124484211764313178
SkinnedMeshRenderer:
  m_ObjectHideFlags: 0
  m_CorrespondingSourceObject: {fileID: 0}
  m_PrefabInstance: {fileID: 0}
  m_PrefabAsset: {fileID: 0}
  m_GameObject: {fileID: 5134837558824154976}
  m_Enabled: 1
  m_CastShadows: 1
  m_ReceiveShadows: 1
  m_DynamicOccludee: 1
  m_StaticShadowCaster: 0
  m_MotionVectors: 1
  m_LightProbeUsage: 1
  m_ReflectionProbeUsage: 1
  m_RayTracingMode: 0
  m_RayTraceProcedural: 0
  m_RenderingLayerMask: 1
  m_RendererPriority: 0
  m_Materials:
  - {fileID: 2100000, guid: 98f00aa3cc0f77c4c95b86cc6a17cd05, type: 2}
  m_StaticBatchInfo:
    firstSubMesh: 0
    subMeshCount: 0
  m_StaticBatchRoot: {fileID: 0}
  m_ProbeAnchor: {fileID: 0}
  m_LightProbeVolumeOverride: {fileID: 0}
  m_ScaleInLightmap: 1
  m_ReceiveGI: 1
  m_PreserveUVs: 0
  m_IgnoreNormalsForChartDetection: 0
  m_ImportantGI: 0
  m_StitchLightmapSeams: 1
  m_SelectedEditorRenderState: 3
  m_MinimumChartSize: 4
  m_AutoUVMaxDistance: 0.5
  m_AutoUVMaxAngle: 89
  m_LightmapParameters: {fileID: 0}
  m_SortingLayerID: 0
  m_SortingLayer: 0
  m_SortingOrder: 0
  serializedVersion: 2
  m_Quality: 0
  m_UpdateWhenOffscreen: 0
  m_SkinnedMotionVectors: 1
  m_Mesh: {fileID: -3326965225966394692, guid: 26489012c8ee8af4d84156e5e5ac1035, type: 3}
  m_Bones:
  - {fileID: 5548732878041141538}
  - {fileID: 4908912505468820689}
  m_BlendShapeWeights: []
  m_RootBone: {fileID: 4908912505468820689}
  m_AABB:
    m_Center: {x: -0.13181065, y: 0.12585396, z: 0.11221357}
    m_Extent: {x: 0.109745964, y: 0.08877042, z: 0.09494853}
  m_DirtyAABB: 0
--- !u!1 &5165588229841341878
GameObject:
  m_ObjectHideFlags: 0
  m_CorrespondingSourceObject: {fileID: 0}
  m_PrefabInstance: {fileID: 0}
  m_PrefabAsset: {fileID: 0}
  serializedVersion: 6
  m_Component:
  - component: {fileID: 4809651543699603762}
  m_Layer: 0
  m_Name: root
  m_TagString: Untagged
  m_Icon: {fileID: 0}
  m_NavMeshLayer: 0
  m_StaticEditorFlags: 0
  m_IsActive: 1
--- !u!4 &4809651543699603762
Transform:
  m_ObjectHideFlags: 0
  m_CorrespondingSourceObject: {fileID: 0}
  m_PrefabInstance: {fileID: 0}
  m_PrefabAsset: {fileID: 0}
  m_GameObject: {fileID: 5165588229841341878}
  serializedVersion: 2
  m_LocalRotation: {x: -0.7071068, y: 0, z: -0, w: 0.7071068}
  m_LocalPosition: {x: -0, y: 0, z: 0}
  m_LocalScale: {x: 1, y: 1, z: 1}
  m_ConstrainProportionsScale: 0
  m_Children:
  - {fileID: 7005996462175678975}
  m_Father: {fileID: 8694017505111132838}
  m_LocalEulerAnglesHint: {x: 0, y: 0, z: 0}
--- !u!1 &5383672295123680568
GameObject:
  m_ObjectHideFlags: 0
  m_CorrespondingSourceObject: {fileID: 0}
  m_PrefabInstance: {fileID: 0}
  m_PrefabAsset: {fileID: 0}
  serializedVersion: 6
  m_Component:
  - component: {fileID: 1269179811323654018}
  m_Layer: 0
  m_Name: middle_01_r
  m_TagString: Untagged
  m_Icon: {fileID: 0}
  m_NavMeshLayer: 0
  m_StaticEditorFlags: 0
  m_IsActive: 1
--- !u!4 &1269179811323654018
Transform:
  m_ObjectHideFlags: 0
  m_CorrespondingSourceObject: {fileID: 0}
  m_PrefabInstance: {fileID: 0}
  m_PrefabAsset: {fileID: 0}
  m_GameObject: {fileID: 5383672295123680568}
  serializedVersion: 2
  m_LocalRotation: {x: 0.02852216, y: 0.056873895, z: -0.19848494, w: 0.97803664}
  m_LocalPosition: {x: 0.12244117, y: -0.012937164, z: -0.005711288}
  m_LocalScale: {x: 1, y: 1, z: 1}
  m_ConstrainProportionsScale: 0
  m_Children:
  - {fileID: 6450636353456185353}
  m_Father: {fileID: 2326417097526803833}
  m_LocalEulerAnglesHint: {x: 0, y: 0, z: 0}
--- !u!1 &5618494679194591426
GameObject:
  m_ObjectHideFlags: 0
  m_CorrespondingSourceObject: {fileID: 0}
  m_PrefabInstance: {fileID: 0}
  m_PrefabAsset: {fileID: 0}
  serializedVersion: 6
  m_Component:
  - component: {fileID: 2346718924848048590}
  - component: {fileID: 7321886160796829050}
  m_Layer: 0
  m_Name: Sci_Fi_Character_08_Body
  m_TagString: Untagged
  m_Icon: {fileID: 0}
  m_NavMeshLayer: 0
  m_StaticEditorFlags: 0
  m_IsActive: 1
--- !u!4 &2346718924848048590
Transform:
  m_ObjectHideFlags: 0
  m_CorrespondingSourceObject: {fileID: 0}
  m_PrefabInstance: {fileID: 0}
  m_PrefabAsset: {fileID: 0}
  m_GameObject: {fileID: 5618494679194591426}
  serializedVersion: 2
  m_LocalRotation: {x: -0.7071068, y: 0, z: -0, w: 0.7071068}
  m_LocalPosition: {x: -0, y: 0, z: 0}
  m_LocalScale: {x: 1, y: 1, z: 1}
  m_ConstrainProportionsScale: 0
  m_Children: []
  m_Father: {fileID: 8694017505111132838}
  m_LocalEulerAnglesHint: {x: 0, y: 0, z: 0}
--- !u!137 &7321886160796829050
SkinnedMeshRenderer:
  m_ObjectHideFlags: 0
  m_CorrespondingSourceObject: {fileID: 0}
  m_PrefabInstance: {fileID: 0}
  m_PrefabAsset: {fileID: 0}
  m_GameObject: {fileID: 5618494679194591426}
  m_Enabled: 1
  m_CastShadows: 1
  m_ReceiveShadows: 1
  m_DynamicOccludee: 1
  m_StaticShadowCaster: 0
  m_MotionVectors: 1
  m_LightProbeUsage: 1
  m_ReflectionProbeUsage: 1
  m_RayTracingMode: 0
  m_RayTraceProcedural: 0
  m_RenderingLayerMask: 1
  m_RendererPriority: 0
  m_Materials:
  - {fileID: 2100000, guid: ebcb06885163d35418f01b9fc06d0027, type: 2}
  m_StaticBatchInfo:
    firstSubMesh: 0
    subMeshCount: 0
  m_StaticBatchRoot: {fileID: 0}
  m_ProbeAnchor: {fileID: 0}
  m_LightProbeVolumeOverride: {fileID: 0}
  m_ScaleInLightmap: 1
  m_ReceiveGI: 1
  m_PreserveUVs: 0
  m_IgnoreNormalsForChartDetection: 0
  m_ImportantGI: 0
  m_StitchLightmapSeams: 1
  m_SelectedEditorRenderState: 3
  m_MinimumChartSize: 4
  m_AutoUVMaxDistance: 0.5
  m_AutoUVMaxAngle: 89
  m_LightmapParameters: {fileID: 0}
  m_SortingLayerID: 0
  m_SortingLayer: 0
  m_SortingOrder: 0
  serializedVersion: 2
  m_Quality: 0
  m_UpdateWhenOffscreen: 0
  m_SkinnedMotionVectors: 1
  m_Mesh: {fileID: -1976485484605376593, guid: 26489012c8ee8af4d84156e5e5ac1035, type: 3}
  m_Bones:
  - {fileID: 8446754194087254778}
  - {fileID: 2685130160409489248}
  - {fileID: 8062854723093809935}
  - {fileID: 7400218048703543253}
  - {fileID: 7005996462175678975}
  - {fileID: 6295513038251650356}
  - {fileID: 6371822298685238483}
  - {fileID: 6978241325947550956}
  - {fileID: 7267573791668023508}
  - {fileID: 4908912505468820689}
  - {fileID: 4839938331595795960}
  - {fileID: 2176433580542732420}
  - {fileID: 5904285499249611371}
  - {fileID: 3984036698460480944}
  - {fileID: 3692242892422369333}
  - {fileID: 4046249190106680677}
  - {fileID: 3971514320289331663}
  - {fileID: 944189799739332822}
  - {fileID: 4249311769628632989}
  - {fileID: 1436393393371547278}
  - {fileID: 3649463297760210602}
  - {fileID: 4926508007500890935}
  - {fileID: 7285856547109325663}
  - {fileID: 8834341092014352794}
  - {fileID: 6447773834255398144}
  - {fileID: 2982948472221613541}
  - {fileID: 9055406925812461625}
  - {fileID: 9031606283508593182}
  - {fileID: 9085869274335169763}
  - {fileID: 1889905428886274989}
  - {fileID: 4724628722835533865}
  - {fileID: 2310116495164625988}
  - {fileID: 3395364336495788735}
  - {fileID: 3102308965353689368}
  - {fileID: 6666327000730001685}
  - {fileID: 2326417097526803833}
  - {fileID: 864772291079846865}
  - {fileID: 6450773108082417335}
  - {fileID: 8460462807487112428}
  - {fileID: 6437561127955755399}
  - {fileID: 3163058686169513304}
  - {fileID: 6232328529861403691}
  - {fileID: 3064859334211718658}
  - {fileID: 1269179811323654018}
  - {fileID: 6450636353456185353}
  - {fileID: 6518292001187454820}
  - {fileID: 2809504337931338873}
  - {fileID: 4153273177926159571}
  - {fileID: 4199363159358980996}
  - {fileID: 1430332986117914754}
  - {fileID: 8708070613816719814}
  - {fileID: 986945781822757406}
  - {fileID: 5548732878041141538}
  - {fileID: 4106119257031642895}
  m_BlendShapeWeights: []
  m_RootBone: {fileID: 7005996462175678975}
  m_AABB:
    m_Center: {x: 0.10202995, y: 0.042243063, z: 0.00000035762787}
    m_Extent: {x: 0.88155794, y: 0.24730486, z: 1.0007333}
  m_DirtyAABB: 0
--- !u!1 &5625536835755119348
GameObject:
  m_ObjectHideFlags: 0
  m_CorrespondingSourceObject: {fileID: 0}
  m_PrefabInstance: {fileID: 0}
  m_PrefabAsset: {fileID: 0}
  serializedVersion: 6
  m_Component:
  - component: {fileID: 6978241325947550956}
  m_Layer: 0
  m_Name: head
  m_TagString: Untagged
  m_Icon: {fileID: 0}
  m_NavMeshLayer: 0
  m_StaticEditorFlags: 0
  m_IsActive: 1
--- !u!4 &6978241325947550956
Transform:
  m_ObjectHideFlags: 0
  m_CorrespondingSourceObject: {fileID: 0}
  m_PrefabInstance: {fileID: 0}
  m_PrefabAsset: {fileID: 0}
  m_GameObject: {fileID: 5625536835755119348}
  serializedVersion: 2
  m_LocalRotation: {x: 2.6143405e-16, y: -7.204873e-15, z: -0.13354197, w: 0.99104315}
  m_LocalPosition: {x: -0.12162018, y: -0.0065364074, z: 0.0000000037700554}
  m_LocalScale: {x: 1, y: 1, z: 1}
  m_ConstrainProportionsScale: 0
  m_Children: []
  m_Father: {fileID: 4839938331595795960}
  m_LocalEulerAnglesHint: {x: 0, y: 0, z: 0}
--- !u!1 &5899516151812801074
GameObject:
  m_ObjectHideFlags: 0
  m_CorrespondingSourceObject: {fileID: 0}
  m_PrefabInstance: {fileID: 0}
  m_PrefabAsset: {fileID: 0}
  serializedVersion: 6
  m_Component:
  - component: {fileID: 4249311769628632989}
  m_Layer: 0
  m_Name: index_02_l
  m_TagString: Untagged
  m_Icon: {fileID: 0}
  m_NavMeshLayer: 0
  m_StaticEditorFlags: 0
  m_IsActive: 1
--- !u!4 &4249311769628632989
Transform:
  m_ObjectHideFlags: 0
  m_CorrespondingSourceObject: {fileID: 0}
  m_PrefabInstance: {fileID: 0}
  m_PrefabAsset: {fileID: 0}
  m_GameObject: {fileID: 5899516151812801074}
  serializedVersion: 2
  m_LocalRotation: {x: 0.012043551, y: 0.0029059297, z: -0.10444825, w: 0.9944532}
  m_LocalPosition: {x: -0.04287487, y: 0, z: 0}
  m_LocalScale: {x: 1, y: 1, z: 1}
  m_ConstrainProportionsScale: 0
  m_Children:
  - {fileID: 3971514320289331663}
  m_Father: {fileID: 944189799739332822}
  m_LocalEulerAnglesHint: {x: 0, y: 0, z: 0}
--- !u!1 &5913459945219391883
GameObject:
  m_ObjectHideFlags: 0
  m_CorrespondingSourceObject: {fileID: 0}
  m_PrefabInstance: {fileID: 0}
  m_PrefabAsset: {fileID: 0}
  serializedVersion: 6
  m_Component:
  - component: {fileID: 864772291079846865}
  m_Layer: 0
  m_Name: thumb_03_r
  m_TagString: Untagged
  m_Icon: {fileID: 0}
  m_NavMeshLayer: 0
  m_StaticEditorFlags: 0
  m_IsActive: 1
--- !u!4 &864772291079846865
Transform:
  m_ObjectHideFlags: 0
  m_CorrespondingSourceObject: {fileID: 0}
  m_PrefabInstance: {fileID: 0}
  m_PrefabAsset: {fileID: 0}
  m_GameObject: {fileID: 5913459945219391883}
  serializedVersion: 2
  m_LocalRotation: {x: 0.021399036, y: -0.001883379, z: 0.10793753, w: 0.9939256}
  m_LocalPosition: {x: 0.040621795, y: 0.000000038146972, z: 0}
  m_LocalScale: {x: 1, y: 1, z: 1}
  m_ConstrainProportionsScale: 0
  m_Children: []
  m_Father: {fileID: 8460462807487112428}
  m_LocalEulerAnglesHint: {x: 0, y: 0, z: 0}
--- !u!1 &5917714742452500258
GameObject:
  m_ObjectHideFlags: 0
  m_CorrespondingSourceObject: {fileID: 0}
  m_PrefabInstance: {fileID: 0}
  m_PrefabAsset: {fileID: 0}
  serializedVersion: 6
  m_Component:
  - component: {fileID: 7005996462175678975}
  m_Layer: 0
  m_Name: pelvis
  m_TagString: Untagged
  m_Icon: {fileID: 0}
  m_NavMeshLayer: 0
  m_StaticEditorFlags: 0
  m_IsActive: 1
--- !u!4 &7005996462175678975
Transform:
  m_ObjectHideFlags: 0
  m_CorrespondingSourceObject: {fileID: 0}
  m_PrefabInstance: {fileID: 0}
  m_PrefabAsset: {fileID: 0}
  m_GameObject: {fileID: 5917714742452500258}
  serializedVersion: 2
  m_LocalRotation: {x: 0.001285252, y: 0.7071056, z: 0.001285252, w: 0.70710564}
  m_LocalPosition: {x: -1.3536842e-30, y: 0.010561532, z: 0.967506}
  m_LocalScale: {x: 1, y: 1, z: 1}
  m_ConstrainProportionsScale: 0
  m_Children:
  - {fileID: 7400218048703543253}
  - {fileID: 6295513038251650356}
  - {fileID: 4908912505468820689}
  m_Father: {fileID: 4809651543699603762}
  m_LocalEulerAnglesHint: {x: 0, y: 0, z: 0}
--- !u!1 &6335319776817952701
GameObject:
  m_ObjectHideFlags: 0
  m_CorrespondingSourceObject: {fileID: 0}
  m_PrefabInstance: {fileID: 0}
  m_PrefabAsset: {fileID: 0}
  serializedVersion: 6
  m_Component:
  - component: {fileID: 3984036698460480944}
  m_Layer: 0
  m_Name: thumb_03_l
  m_TagString: Untagged
  m_Icon: {fileID: 0}
  m_NavMeshLayer: 0
  m_StaticEditorFlags: 0
  m_IsActive: 1
--- !u!4 &3984036698460480944
Transform:
  m_ObjectHideFlags: 0
  m_CorrespondingSourceObject: {fileID: 0}
  m_PrefabInstance: {fileID: 0}
  m_PrefabAsset: {fileID: 0}
  m_GameObject: {fileID: 6335319776817952701}
  serializedVersion: 2
  m_LocalRotation: {x: 0.021399066, y: -0.0018833617, z: 0.1079375, w: 0.9939256}
  m_LocalPosition: {x: -0.040621832, y: 0, z: 0.00000015258789}
  m_LocalScale: {x: 1, y: 1, z: 1}
  m_ConstrainProportionsScale: 0
  m_Children: []
  m_Father: {fileID: 4046249190106680677}
  m_LocalEulerAnglesHint: {x: 0, y: 0, z: 0}
--- !u!1 &6469148486023388984
GameObject:
  m_ObjectHideFlags: 0
  m_CorrespondingSourceObject: {fileID: 0}
  m_PrefabInstance: {fileID: 0}
  m_PrefabAsset: {fileID: 0}
  serializedVersion: 6
  m_Component:
  - component: {fileID: 6437561127955755399}
  m_Layer: 0
  m_Name: index_03_r
  m_TagString: Untagged
  m_Icon: {fileID: 0}
  m_NavMeshLayer: 0
  m_StaticEditorFlags: 0
  m_IsActive: 1
--- !u!4 &6437561127955755399
Transform:
  m_ObjectHideFlags: 0
  m_CorrespondingSourceObject: {fileID: 0}
  m_PrefabInstance: {fileID: 0}
  m_PrefabAsset: {fileID: 0}
  m_GameObject: {fileID: 6469148486023388984}
  serializedVersion: 2
  m_LocalRotation: {x: 0.010611134, y: -0.007850894, z: 0.08285497, w: 0.9964742}
  m_LocalPosition: {x: 0.033937987, y: 0.000001373291, z: -0.00000022888183}
  m_LocalScale: {x: 1, y: 1, z: 1}
  m_ConstrainProportionsScale: 0
  m_Children: []
  m_Father: {fileID: 6232328529861403691}
  m_LocalEulerAnglesHint: {x: 0, y: 0, z: 0}
--- !u!1 &6594329931614891834
GameObject:
  m_ObjectHideFlags: 0
  m_CorrespondingSourceObject: {fileID: 0}
  m_PrefabInstance: {fileID: 0}
  m_PrefabAsset: {fileID: 0}
  serializedVersion: 6
  m_Component:
  - component: {fileID: 339043251313196289}
  - component: {fileID: 146565842758247781}
  m_Layer: 0
  m_Name: Sci_Fi_Character_08_Bags_Belts
  m_TagString: Untagged
  m_Icon: {fileID: 0}
  m_NavMeshLayer: 0
  m_StaticEditorFlags: 0
  m_IsActive: 1
--- !u!4 &339043251313196289
Transform:
  m_ObjectHideFlags: 0
  m_CorrespondingSourceObject: {fileID: 0}
  m_PrefabInstance: {fileID: 0}
  m_PrefabAsset: {fileID: 0}
  m_GameObject: {fileID: 6594329931614891834}
  serializedVersion: 2
  m_LocalRotation: {x: -0.7071068, y: 0, z: -0, w: 0.7071068}
  m_LocalPosition: {x: -0, y: 0, z: 0}
  m_LocalScale: {x: 1, y: 1, z: 1}
  m_ConstrainProportionsScale: 0
  m_Children: []
  m_Father: {fileID: 8694017505111132838}
  m_LocalEulerAnglesHint: {x: 0, y: 0, z: 0}
--- !u!137 &146565842758247781
SkinnedMeshRenderer:
  m_ObjectHideFlags: 0
  m_CorrespondingSourceObject: {fileID: 0}
  m_PrefabInstance: {fileID: 0}
  m_PrefabAsset: {fileID: 0}
  m_GameObject: {fileID: 6594329931614891834}
  m_Enabled: 1
  m_CastShadows: 1
  m_ReceiveShadows: 1
  m_DynamicOccludee: 1
  m_StaticShadowCaster: 0
  m_MotionVectors: 1
  m_LightProbeUsage: 1
  m_ReflectionProbeUsage: 1
  m_RayTracingMode: 0
  m_RayTraceProcedural: 0
  m_RenderingLayerMask: 1
  m_RendererPriority: 0
  m_Materials:
  - {fileID: 2100000, guid: 98f00aa3cc0f77c4c95b86cc6a17cd05, type: 2}
  m_StaticBatchInfo:
    firstSubMesh: 0
    subMeshCount: 0
  m_StaticBatchRoot: {fileID: 0}
  m_ProbeAnchor: {fileID: 0}
  m_LightProbeVolumeOverride: {fileID: 0}
  m_ScaleInLightmap: 1
  m_ReceiveGI: 1
  m_PreserveUVs: 0
  m_IgnoreNormalsForChartDetection: 0
  m_ImportantGI: 0
  m_StitchLightmapSeams: 1
  m_SelectedEditorRenderState: 3
  m_MinimumChartSize: 4
  m_AutoUVMaxDistance: 0.5
  m_AutoUVMaxAngle: 89
  m_LightmapParameters: {fileID: 0}
  m_SortingLayerID: 0
  m_SortingLayer: 0
  m_SortingOrder: 0
  serializedVersion: 2
  m_Quality: 0
  m_UpdateWhenOffscreen: 0
  m_SkinnedMotionVectors: 1
  m_Mesh: {fileID: -8618464512762473957, guid: 26489012c8ee8af4d84156e5e5ac1035, type: 3}
  m_Bones:
  - {fileID: 7005996462175678975}
  - {fileID: 7400218048703543253}
  - {fileID: 6295513038251650356}
  - {fileID: 4908912505468820689}
  - {fileID: 8062854723093809935}
  - {fileID: 5548732878041141538}
  - {fileID: 2685130160409489248}
  m_BlendShapeWeights: []
  m_RootBone: {fileID: 7005996462175678975}
  m_AABB:
    m_Center: {x: 0.04756412, y: 0.001859501, z: 0.019658796}
    m_Extent: {x: 0.28438166, y: 0.19628328, z: 0.26470023}
  m_DirtyAABB: 0
--- !u!1 &6644933368944595143
GameObject:
  m_ObjectHideFlags: 0
  m_CorrespondingSourceObject: {fileID: 0}
  m_PrefabInstance: {fileID: 0}
  m_PrefabAsset: {fileID: 0}
  serializedVersion: 6
  m_Component:
  - component: {fileID: 2685130160409489248}
  m_Layer: 0
  m_Name: spine_03
  m_TagString: Untagged
  m_Icon: {fileID: 0}
  m_NavMeshLayer: 0
  m_StaticEditorFlags: 0
  m_IsActive: 1
--- !u!4 &2685130160409489248
Transform:
  m_ObjectHideFlags: 0
  m_CorrespondingSourceObject: {fileID: 0}
  m_PrefabInstance: {fileID: 0}
  m_PrefabAsset: {fileID: 0}
  m_GameObject: {fileID: 6644933368944595143}
  serializedVersion: 2
  m_LocalRotation: {x: 9.740796e-16, y: 3.5301275e-15, z: -0.024252605, w: 0.9997059}
  m_LocalPosition: {x: -0.13407294, y: 0.004204769, z: -1.8189894e-14}
  m_LocalScale: {x: 1, y: 1, z: 1}
  m_ConstrainProportionsScale: 0
  m_Children:
  - {fileID: 8446754194087254778}
  - {fileID: 2310116495164625988}
  - {fileID: 4839938331595795960}
  m_Father: {fileID: 8062854723093809935}
  m_LocalEulerAnglesHint: {x: 0, y: 0, z: 0}
--- !u!1 &6673335130409537224
GameObject:
  m_ObjectHideFlags: 0
  m_CorrespondingSourceObject: {fileID: 0}
  m_PrefabInstance: {fileID: 0}
  m_PrefabAsset: {fileID: 0}
  serializedVersion: 6
  m_Component:
  - component: {fileID: 6450773108082417335}
  m_Layer: 0
  m_Name: thumb_01_r
  m_TagString: Untagged
  m_Icon: {fileID: 0}
  m_NavMeshLayer: 0
  m_StaticEditorFlags: 0
  m_IsActive: 1
--- !u!4 &6450773108082417335
Transform:
  m_ObjectHideFlags: 0
  m_CorrespondingSourceObject: {fileID: 0}
  m_PrefabInstance: {fileID: 0}
  m_PrefabAsset: {fileID: 0}
  m_GameObject: {fileID: 6673335130409537224}
  serializedVersion: 2
  m_LocalRotation: {x: 0.6303091, y: -0.3715252, z: 0.07729027, w: 0.6772782}
  m_LocalPosition: {x: 0.047621153, y: -0.023751372, z: 0.025378035}
  m_LocalScale: {x: 1, y: 1, z: 1}
  m_ConstrainProportionsScale: 0
  m_Children:
  - {fileID: 8460462807487112428}
  m_Father: {fileID: 2326417097526803833}
  m_LocalEulerAnglesHint: {x: 0, y: 0, z: 0}
--- !u!1 &6726122107497241726
GameObject:
  m_ObjectHideFlags: 0
  m_CorrespondingSourceObject: {fileID: 0}
  m_PrefabInstance: {fileID: 0}
  m_PrefabAsset: {fileID: 0}
  serializedVersion: 6
  m_Component:
  - component: {fileID: 3102308965353689368}
  m_Layer: 0
  m_Name: lowerarm_r
  m_TagString: Untagged
  m_Icon: {fileID: 0}
  m_NavMeshLayer: 0
  m_StaticEditorFlags: 0
  m_IsActive: 1
--- !u!4 &3102308965353689368
Transform:
  m_ObjectHideFlags: 0
  m_CorrespondingSourceObject: {fileID: 0}
  m_PrefabInstance: {fileID: 0}
  m_PrefabAsset: {fileID: 0}
  m_GameObject: {fileID: 6726122107497241726}
  serializedVersion: 2
  m_LocalRotation: {x: -0.05146685, y: 0.09814898, z: 0.049001116, w: 0.99263126}
  m_LocalPosition: {x: 0.3034004, y: -0.000000038146972, z: 0.00000030517577}
  m_LocalScale: {x: 1, y: 1, z: 1}
  m_ConstrainProportionsScale: 0
  m_Children:
  - {fileID: 2326417097526803833}
  - {fileID: 6666327000730001685}
  m_Father: {fileID: 3395364336495788735}
  m_LocalEulerAnglesHint: {x: 0, y: 0, z: 0}
--- !u!1 &6791778882039152535
GameObject:
  m_ObjectHideFlags: 0
  m_CorrespondingSourceObject: {fileID: 0}
  m_PrefabInstance: {fileID: 0}
  m_PrefabAsset: {fileID: 0}
  serializedVersion: 6
  m_Component:
  - component: {fileID: 1889905428886274989}
  m_Layer: 0
  m_Name: calf_l
  m_TagString: Untagged
  m_Icon: {fileID: 0}
  m_NavMeshLayer: 0
  m_StaticEditorFlags: 0
  m_IsActive: 1
--- !u!4 &1889905428886274989
Transform:
  m_ObjectHideFlags: 0
  m_CorrespondingSourceObject: {fileID: 0}
  m_PrefabInstance: {fileID: 0}
  m_PrefabAsset: {fileID: 0}
  m_GameObject: {fileID: 6791778882039152535}
  serializedVersion: 2
  m_LocalRotation: {x: -0.048884194, y: -0.018863898, z: 0.06552232, w: 0.99647444}
  m_LocalPosition: {x: 0.42572036, y: -5.9604643e-10, z: 0}
  m_LocalScale: {x: 1, y: 1, z: 1}
  m_ConstrainProportionsScale: 0
  m_Children:
  - {fileID: 4724628722835533865}
  m_Father: {fileID: 6295513038251650356}
  m_LocalEulerAnglesHint: {x: 0, y: 0, z: 0}
--- !u!1 &7391802696699349948
GameObject:
  m_ObjectHideFlags: 0
  m_CorrespondingSourceObject: {fileID: 0}
  m_PrefabInstance: {fileID: 0}
  m_PrefabAsset: {fileID: 0}
  serializedVersion: 6
  m_Component:
  - component: {fileID: 4861412560974884398}
  - component: {fileID: 7069593593735581018}
  m_Layer: 0
  m_Name: Sci_Fi_Character_08_Head_02
  m_TagString: Untagged
  m_Icon: {fileID: 0}
  m_NavMeshLayer: 0
  m_StaticEditorFlags: 0
  m_IsActive: 0
--- !u!4 &4861412560974884398
Transform:
  m_ObjectHideFlags: 0
  m_CorrespondingSourceObject: {fileID: 0}
  m_PrefabInstance: {fileID: 0}
  m_PrefabAsset: {fileID: 0}
  m_GameObject: {fileID: 7391802696699349948}
  serializedVersion: 2
  m_LocalRotation: {x: -0.7071068, y: 0, z: -0, w: 0.7071068}
  m_LocalPosition: {x: -0, y: 0, z: 0}
  m_LocalScale: {x: 1, y: 1, z: 1}
  m_ConstrainProportionsScale: 0
  m_Children: []
  m_Father: {fileID: 8694017505111132838}
  m_LocalEulerAnglesHint: {x: 0, y: 0, z: 0}
--- !u!137 &7069593593735581018
SkinnedMeshRenderer:
  m_ObjectHideFlags: 0
  m_CorrespondingSourceObject: {fileID: 0}
  m_PrefabInstance: {fileID: 0}
  m_PrefabAsset: {fileID: 0}
  m_GameObject: {fileID: 7391802696699349948}
  m_Enabled: 1
  m_CastShadows: 1
  m_ReceiveShadows: 1
  m_DynamicOccludee: 1
  m_StaticShadowCaster: 0
  m_MotionVectors: 1
  m_LightProbeUsage: 1
  m_ReflectionProbeUsage: 1
  m_RayTracingMode: 0
  m_RayTraceProcedural: 0
  m_RenderingLayerMask: 1
  m_RendererPriority: 0
  m_Materials:
  - {fileID: 2100000, guid: 3944885e2ed7e67418a682b36827e6b2, type: 2}
  m_StaticBatchInfo:
    firstSubMesh: 0
    subMeshCount: 0
  m_StaticBatchRoot: {fileID: 0}
  m_ProbeAnchor: {fileID: 0}
  m_LightProbeVolumeOverride: {fileID: 0}
  m_ScaleInLightmap: 1
  m_ReceiveGI: 1
  m_PreserveUVs: 0
  m_IgnoreNormalsForChartDetection: 0
  m_ImportantGI: 0
  m_StitchLightmapSeams: 1
  m_SelectedEditorRenderState: 3
  m_MinimumChartSize: 4
  m_AutoUVMaxDistance: 0.5
  m_AutoUVMaxAngle: 89
  m_LightmapParameters: {fileID: 0}
  m_SortingLayerID: 0
  m_SortingLayer: 0
  m_SortingOrder: 0
  serializedVersion: 2
  m_Quality: 0
  m_UpdateWhenOffscreen: 0
  m_SkinnedMotionVectors: 1
  m_Mesh: {fileID: 730660441875114663, guid: 26489012c8ee8af4d84156e5e5ac1035, type: 3}
  m_Bones:
  - {fileID: 6978241325947550956}
  - {fileID: 2685130160409489248}
  - {fileID: 8446754194087254778}
  - {fileID: 4839938331595795960}
  - {fileID: 2310116495164625988}
  m_BlendShapeWeights: []
  m_RootBone: {fileID: 2685130160409489248}
  m_AABB:
    m_Center: {x: -0.27478147, y: -0.0800851, z: -0.00022190064}
    m_Extent: {x: 0.15436704, y: 0.1214554, z: 0.09296701}
  m_DirtyAABB: 0
--- !u!1 &7471064624623135437
GameObject:
  m_ObjectHideFlags: 0
  m_CorrespondingSourceObject: {fileID: 0}
  m_PrefabInstance: {fileID: 0}
  m_PrefabAsset: {fileID: 0}
  serializedVersion: 6
  m_Component:
  - component: {fileID: 7267573791668023508}
  m_Layer: 0
  m_Name: lowerarm_l
  m_TagString: Untagged
  m_Icon: {fileID: 0}
  m_NavMeshLayer: 0
  m_StaticEditorFlags: 0
  m_IsActive: 1
--- !u!4 &7267573791668023508
Transform:
  m_ObjectHideFlags: 0
  m_CorrespondingSourceObject: {fileID: 0}
  m_PrefabInstance: {fileID: 0}
  m_PrefabAsset: {fileID: 0}
  m_GameObject: {fileID: 7471064624623135437}
  serializedVersion: 2
  m_LocalRotation: {x: -0.05146688, y: 0.09814893, z: 0.04900115, w: 0.9926313}
  m_LocalPosition: {x: -0.3033993, y: -0.000000009536743, z: 0}
  m_LocalScale: {x: 1, y: 1, z: 1}
  m_ConstrainProportionsScale: 0
  m_Children:
  - {fileID: 5904285499249611371}
  - {fileID: 2176433580542732420}
  m_Father: {fileID: 6371822298685238483}
  m_LocalEulerAnglesHint: {x: 0, y: 0, z: 0}
--- !u!1 &7549929600689234888
GameObject:
  m_ObjectHideFlags: 0
  m_CorrespondingSourceObject: {fileID: 0}
  m_PrefabInstance: {fileID: 0}
  m_PrefabAsset: {fileID: 0}
  serializedVersion: 6
  m_Component:
  - component: {fileID: 8346941534591251425}
  - component: {fileID: 241221685013859335}
  m_Layer: 0
  m_Name: Sci_Fi_Character_08_Shoes_Details_01
  m_TagString: Untagged
  m_Icon: {fileID: 0}
  m_NavMeshLayer: 0
  m_StaticEditorFlags: 0
  m_IsActive: 1
--- !u!4 &8346941534591251425
Transform:
  m_ObjectHideFlags: 0
  m_CorrespondingSourceObject: {fileID: 0}
  m_PrefabInstance: {fileID: 0}
  m_PrefabAsset: {fileID: 0}
  m_GameObject: {fileID: 7549929600689234888}
  serializedVersion: 2
  m_LocalRotation: {x: -0.7071068, y: 0, z: -0, w: 0.7071068}
  m_LocalPosition: {x: -0, y: 0, z: 0}
  m_LocalScale: {x: 1, y: 1, z: 1}
  m_ConstrainProportionsScale: 0
  m_Children: []
  m_Father: {fileID: 8694017505111132838}
  m_LocalEulerAnglesHint: {x: 0, y: 0, z: 0}
--- !u!137 &241221685013859335
SkinnedMeshRenderer:
  m_ObjectHideFlags: 0
  m_CorrespondingSourceObject: {fileID: 0}
  m_PrefabInstance: {fileID: 0}
  m_PrefabAsset: {fileID: 0}
  m_GameObject: {fileID: 7549929600689234888}
  m_Enabled: 1
  m_CastShadows: 1
  m_ReceiveShadows: 1
  m_DynamicOccludee: 1
  m_StaticShadowCaster: 0
  m_MotionVectors: 1
  m_LightProbeUsage: 1
  m_ReflectionProbeUsage: 1
  m_RayTracingMode: 0
  m_RayTraceProcedural: 0
  m_RenderingLayerMask: 1
  m_RendererPriority: 0
  m_Materials:
  - {fileID: 2100000, guid: 98f00aa3cc0f77c4c95b86cc6a17cd05, type: 2}
  m_StaticBatchInfo:
    firstSubMesh: 0
    subMeshCount: 0
  m_StaticBatchRoot: {fileID: 0}
  m_ProbeAnchor: {fileID: 0}
  m_LightProbeVolumeOverride: {fileID: 0}
  m_ScaleInLightmap: 1
  m_ReceiveGI: 1
  m_PreserveUVs: 0
  m_IgnoreNormalsForChartDetection: 0
  m_ImportantGI: 0
  m_StitchLightmapSeams: 1
  m_SelectedEditorRenderState: 3
  m_MinimumChartSize: 4
  m_AutoUVMaxDistance: 0.5
  m_AutoUVMaxAngle: 89
  m_LightmapParameters: {fileID: 0}
  m_SortingLayerID: 0
  m_SortingLayer: 0
  m_SortingOrder: 0
  serializedVersion: 2
  m_Quality: 0
  m_UpdateWhenOffscreen: 0
  m_SkinnedMotionVectors: 1
  m_Mesh: {fileID: -3399159729550564889, guid: 26489012c8ee8af4d84156e5e5ac1035, type: 3}
  m_Bones:
  - {fileID: 1889905428886274989}
  - {fileID: 4724628722835533865}
  - {fileID: 9085869274335169763}
  - {fileID: 5548732878041141538}
  - {fileID: 4106119257031642895}
  - {fileID: 986945781822757406}
  m_BlendShapeWeights: []
  m_RootBone: {fileID: 5548732878041141538}
  m_AABB:
    m_Center: {x: -0.380135, y: 0.009377804, z: -0.17996302}
    m_Extent: {x: 0.0986858, y: 0.122617066, z: 0.24254075}
  m_DirtyAABB: 0
--- !u!1 &7645528231623097586
GameObject:
  m_ObjectHideFlags: 0
  m_CorrespondingSourceObject: {fileID: 0}
  m_PrefabInstance: {fileID: 0}
  m_PrefabAsset: {fileID: 0}
  serializedVersion: 6
  m_Component:
  - component: {fileID: 4908912505468820689}
  m_Layer: 0
  m_Name: thigh_r
  m_TagString: Untagged
  m_Icon: {fileID: 0}
  m_NavMeshLayer: 0
  m_StaticEditorFlags: 0
  m_IsActive: 1
--- !u!4 &4908912505468820689
Transform:
  m_ObjectHideFlags: 0
  m_CorrespondingSourceObject: {fileID: 0}
  m_PrefabInstance: {fileID: 0}
  m_PrefabAsset: {fileID: 0}
  m_GameObject: {fileID: 7645528231623097586}
  serializedVersion: 2
  m_LocalRotation: {x: -0.062138926, y: 0.073704876, z: 0.9953053, w: -0.008584256}
  m_LocalPosition: {x: 0.014486617, y: -0.0053142747, z: 0.09005803}
  m_LocalScale: {x: 1, y: 1, z: 1}
  m_ConstrainProportionsScale: 0
  m_Children:
  - {fileID: 5548732878041141538}
  m_Father: {fileID: 7005996462175678975}
  m_LocalEulerAnglesHint: {x: 0, y: 0, z: 0}
--- !u!1 &7848340602520261731
GameObject:
  m_ObjectHideFlags: 0
  m_CorrespondingSourceObject: {fileID: 0}
  m_PrefabInstance: {fileID: 0}
  m_PrefabAsset: {fileID: 0}
  serializedVersion: 6
  m_Component:
  - component: {fileID: 1436393393371547278}
  m_Layer: 0
  m_Name: middle_03_l
  m_TagString: Untagged
  m_Icon: {fileID: 0}
  m_NavMeshLayer: 0
  m_StaticEditorFlags: 0
  m_IsActive: 1
--- !u!4 &1436393393371547278
Transform:
  m_ObjectHideFlags: 0
  m_CorrespondingSourceObject: {fileID: 0}
  m_PrefabInstance: {fileID: 0}
  m_PrefabAsset: {fileID: 0}
  m_GameObject: {fileID: 7848340602520261731}
  serializedVersion: 2
  m_LocalRotation: {x: 0.0016214522, y: 0.038867008, z: 0.13362361, w: 0.9902684}
  m_LocalPosition: {x: -0.036488496, y: 0.00000015258789, z: 0}
  m_LocalScale: {x: 1, y: 1, z: 1}
  m_ConstrainProportionsScale: 0
  m_Children: []
  m_Father: {fileID: 4926508007500890935}
  m_LocalEulerAnglesHint: {x: 0, y: 0, z: 0}
--- !u!1 &8044126640524557687
GameObject:
  m_ObjectHideFlags: 0
  m_CorrespondingSourceObject: {fileID: 0}
  m_PrefabInstance: {fileID: 0}
  m_PrefabAsset: {fileID: 0}
  serializedVersion: 6
  m_Component:
  - component: {fileID: 6295513038251650356}
  m_Layer: 0
  m_Name: thigh_l
  m_TagString: Untagged
  m_Icon: {fileID: 0}
  m_NavMeshLayer: 0
  m_StaticEditorFlags: 0
  m_IsActive: 1
--- !u!4 &6295513038251650356
Transform:
  m_ObjectHideFlags: 0
  m_CorrespondingSourceObject: {fileID: 0}
  m_PrefabInstance: {fileID: 0}
  m_PrefabAsset: {fileID: 0}
  m_GameObject: {fileID: 8044126640524557687}
  serializedVersion: 2
  m_LocalRotation: {x: 0.07370486, y: 0.062138937, z: 0.008584418, w: 0.9953053}
  m_LocalPosition: {x: 0.014488297, y: -0.005314235, z: -0.090058096}
  m_LocalScale: {x: 1, y: 1, z: 1}
  m_ConstrainProportionsScale: 0
  m_Children:
  - {fileID: 1889905428886274989}
  m_Father: {fileID: 7005996462175678975}
  m_LocalEulerAnglesHint: {x: 0, y: 0, z: 0}
--- !u!1 &8333344194427922645
GameObject:
  m_ObjectHideFlags: 0
  m_CorrespondingSourceObject: {fileID: 0}
  m_PrefabInstance: {fileID: 0}
  m_PrefabAsset: {fileID: 0}
  serializedVersion: 6
  m_Component:
  - component: {fileID: 5548732878041141538}
  m_Layer: 0
  m_Name: calf_r
  m_TagString: Untagged
  m_Icon: {fileID: 0}
  m_NavMeshLayer: 0
  m_StaticEditorFlags: 0
  m_IsActive: 1
--- !u!4 &5548732878041141538
Transform:
  m_ObjectHideFlags: 0
  m_CorrespondingSourceObject: {fileID: 0}
  m_PrefabInstance: {fileID: 0}
  m_PrefabAsset: {fileID: 0}
  m_GameObject: {fileID: 8333344194427922645}
  serializedVersion: 2
  m_LocalRotation: {x: -0.048884206, y: -0.018863901, z: 0.06552232, w: 0.99647444}
  m_LocalPosition: {x: -0.42572257, y: -0.000000019669532, z: 0.000000019073486}
  m_LocalScale: {x: 1, y: 1, z: 1}
  m_ConstrainProportionsScale: 0
  m_Children:
  - {fileID: 4106119257031642895}
  m_Father: {fileID: 4908912505468820689}
  m_LocalEulerAnglesHint: {x: 0, y: 0, z: 0}
--- !u!1 &8353203653604872220
GameObject:
  m_ObjectHideFlags: 0
  m_CorrespondingSourceObject: {fileID: 0}
  m_PrefabInstance: {fileID: 0}
  m_PrefabAsset: {fileID: 0}
  serializedVersion: 6
  m_Component:
  - component: {fileID: 8694017505111132838}
  - component: {fileID: 3334763856463433948}
  - component: {fileID: 4633000086249753015}
  m_Layer: 0
  m_Name: Sci_Fi_Character_08_03
  m_TagString: Untagged
  m_Icon: {fileID: 0}
  m_NavMeshLayer: 0
  m_StaticEditorFlags: 0
  m_IsActive: 1
--- !u!4 &8694017505111132838
Transform:
  m_ObjectHideFlags: 0
  m_CorrespondingSourceObject: {fileID: 0}
  m_PrefabInstance: {fileID: 0}
  m_PrefabAsset: {fileID: 0}
  m_GameObject: {fileID: 8353203653604872220}
  serializedVersion: 2
  m_LocalRotation: {x: 0, y: 0, z: 0, w: 1}
  m_LocalPosition: {x: 0, y: 0, z: 0}
  m_LocalScale: {x: 1, y: 1, z: 1}
  m_ConstrainProportionsScale: 0
  m_Children:
  - {fileID: 4809651543699603762}
  - {fileID: 8207619810333712862}
  - {fileID: 5193191211276314480}
  - {fileID: 3626918090178399461}
  - {fileID: 1414420940305117098}
  - {fileID: 339043251313196289}
  - {fileID: 2346718924848048590}
  - {fileID: 4489363795076515194}
  - {fileID: 1587611411534132807}
  - {fileID: 854528387286397295}
  - {fileID: 4861412560974884398}
  - {fileID: 5549206604224710597}
  - {fileID: 8346941534591251425}
  - {fileID: 1504719773650852940}
  m_Father: {fileID: 0}
  m_LocalEulerAnglesHint: {x: 0, y: 0, z: 0}
--- !u!95 &3334763856463433948
Animator:
  serializedVersion: 7
  m_ObjectHideFlags: 0
  m_CorrespondingSourceObject: {fileID: 0}
  m_PrefabInstance: {fileID: 0}
  m_PrefabAsset: {fileID: 0}
  m_GameObject: {fileID: 8353203653604872220}
  m_Enabled: 1
  m_Avatar: {fileID: 9000000, guid: 26489012c8ee8af4d84156e5e5ac1035, type: 3}
  m_Controller: {fileID: 9100000, guid: 5b9b64b2e4bec6340a1f4f6318b9fc6a, type: 2}
  m_CullingMode: 1
  m_UpdateMode: 0
  m_ApplyRootMotion: 1
  m_LinearVelocityBlending: 0
  m_StabilizeFeet: 0
  m_AnimatePhysics: 0
  m_WarningMessage: 
  m_HasTransformHierarchy: 1
  m_AllowConstantClipSamplingOptimization: 1
  m_KeepAnimatorStateOnDisable: 0
  m_WriteDefaultValuesOnDisable: 0
--- !u!114 &4633000086249753015
MonoBehaviour:
  m_ObjectHideFlags: 0
  m_CorrespondingSourceObject: {fileID: 0}
  m_PrefabInstance: {fileID: 0}
  m_PrefabAsset: {fileID: 0}
  m_GameObject: {fileID: 8353203653604872220}
  m_Enabled: 1
  m_EditorHideFlags: 0
  m_Script: {fileID: 11500000, guid: b5284cd3a7367dd409bef0c51becae46, type: 3}
  m_Name: 
  m_EditorClassIdentifier: 
--- !u!1 &8601401557538840467
GameObject:
  m_ObjectHideFlags: 0
  m_CorrespondingSourceObject: {fileID: 0}
  m_PrefabInstance: {fileID: 0}
  m_PrefabAsset: {fileID: 0}
  serializedVersion: 6
  m_Component:
  - component: {fileID: 6232328529861403691}
  m_Layer: 0
  m_Name: index_02_r
  m_TagString: Untagged
  m_Icon: {fileID: 0}
  m_NavMeshLayer: 0
  m_StaticEditorFlags: 0
  m_IsActive: 1
--- !u!4 &6232328529861403691
Transform:
  m_ObjectHideFlags: 0
  m_CorrespondingSourceObject: {fileID: 0}
  m_PrefabInstance: {fileID: 0}
  m_PrefabAsset: {fileID: 0}
  m_GameObject: {fileID: 8601401557538840467}
  serializedVersion: 2
  m_LocalRotation: {x: 0.012043549, y: 0.0029058997, z: -0.10444828, w: 0.9944532}
  m_LocalPosition: {x: 0.042876855, y: 0.0000009155273, z: -0.0000006866455}
  m_LocalScale: {x: 1, y: 1, z: 1}
  m_ConstrainProportionsScale: 0
  m_Children:
  - {fileID: 6437561127955755399}
  m_Father: {fileID: 3163058686169513304}
  m_LocalEulerAnglesHint: {x: 0, y: 0, z: 0}
--- !u!1 &8819317954440647287
GameObject:
  m_ObjectHideFlags: 0
  m_CorrespondingSourceObject: {fileID: 0}
  m_PrefabInstance: {fileID: 0}
  m_PrefabAsset: {fileID: 0}
  serializedVersion: 6
  m_Component:
  - component: {fileID: 6518292001187454820}
  m_Layer: 0
  m_Name: ring_01_r
  m_TagString: Untagged
  m_Icon: {fileID: 0}
  m_NavMeshLayer: 0
  m_StaticEditorFlags: 0
  m_IsActive: 1
--- !u!4 &6518292001187454820
Transform:
  m_ObjectHideFlags: 0
  m_CorrespondingSourceObject: {fileID: 0}
  m_PrefabInstance: {fileID: 0}
  m_PrefabAsset: {fileID: 0}
  m_GameObject: {fileID: 8819317954440647287}
  serializedVersion: 2
  m_LocalRotation: {x: -0.09548045, y: 0.1167657, z: -0.1885116, w: 0.9704188}
  m_LocalPosition: {x: 0.11497978, y: -0.017537689, z: -0.028469142}
  m_LocalScale: {x: 1, y: 1, z: 1}
  m_ConstrainProportionsScale: 0
  m_Children:
  - {fileID: 4153273177926159571}
  m_Father: {fileID: 2326417097526803833}
  m_LocalEulerAnglesHint: {x: 0, y: 0, z: 0}
--- !u!1 &8851220181933104769
GameObject:
  m_ObjectHideFlags: 0
  m_CorrespondingSourceObject: {fileID: 0}
  m_PrefabInstance: {fileID: 0}
  m_PrefabAsset: {fileID: 0}
  serializedVersion: 6
  m_Component:
  - component: {fileID: 2310116495164625988}
  m_Layer: 0
  m_Name: clavicle_r
  m_TagString: Untagged
  m_Icon: {fileID: 0}
  m_NavMeshLayer: 0
  m_StaticEditorFlags: 0
  m_IsActive: 1
--- !u!4 &2310116495164625988
Transform:
  m_ObjectHideFlags: 0
  m_CorrespondingSourceObject: {fileID: 0}
  m_PrefabInstance: {fileID: 0}
  m_PrefabAsset: {fileID: 0}
  m_GameObject: {fileID: 8851220181933104769}
  serializedVersion: 2
  m_LocalRotation: {x: 0.7294168, y: 0.20891784, z: 0.6396598, w: 0.123043925}
  m_LocalPosition: {x: -0.11883758, y: -0.027321033, z: 0.037820026}
  m_LocalScale: {x: 1, y: 1, z: 1}
  m_ConstrainProportionsScale: 0
  m_Children:
  - {fileID: 3395364336495788735}
  m_Father: {fileID: 2685130160409489248}
  m_LocalEulerAnglesHint: {x: 0, y: 0, z: 0}
--- !u!1 &8859177272808972618
GameObject:
  m_ObjectHideFlags: 0
  m_CorrespondingSourceObject: {fileID: 0}
  m_PrefabInstance: {fileID: 0}
  m_PrefabAsset: {fileID: 0}
  serializedVersion: 6
  m_Component:
  - component: {fileID: 6447773834255398144}
  m_Layer: 0
  m_Name: ring_02_l
  m_TagString: Untagged
  m_Icon: {fileID: 0}
  m_NavMeshLayer: 0
  m_StaticEditorFlags: 0
  m_IsActive: 1
--- !u!4 &6447773834255398144
Transform:
  m_ObjectHideFlags: 0
  m_CorrespondingSourceObject: {fileID: 0}
  m_PrefabInstance: {fileID: 0}
  m_PrefabAsset: {fileID: 0}
  m_GameObject: {fileID: 8859177272808972618}
  serializedVersion: 2
  m_LocalRotation: {x: 0.0043010977, y: 0.014167487, z: -0.115963176, w: 0.9931432}
  m_LocalPosition: {x: -0.044301797, y: 0.00000015258789, z: 0.000000028610229}
  m_LocalScale: {x: 1, y: 1, z: 1}
  m_ConstrainProportionsScale: 0
  m_Children:
  - {fileID: 7285856547109325663}
  m_Father: {fileID: 8834341092014352794}
  m_LocalEulerAnglesHint: {x: 0, y: 0, z: 0}
--- !u!1 &8928501663566887338
GameObject:
  m_ObjectHideFlags: 0
  m_CorrespondingSourceObject: {fileID: 0}
  m_PrefabInstance: {fileID: 0}
  m_PrefabAsset: {fileID: 0}
  serializedVersion: 6
  m_Component:
  - component: {fileID: 8708070613816719814}
  m_Layer: 0
  m_Name: pinky_02_r
  m_TagString: Untagged
  m_Icon: {fileID: 0}
  m_NavMeshLayer: 0
  m_StaticEditorFlags: 0
  m_IsActive: 1
--- !u!4 &8708070613816719814
Transform:
  m_ObjectHideFlags: 0
  m_CorrespondingSourceObject: {fileID: 0}
  m_PrefabInstance: {fileID: 0}
  m_PrefabAsset: {fileID: 0}
  m_GameObject: {fileID: 8928501663566887338}
  serializedVersion: 2
  m_LocalRotation: {x: 0.01035973, y: 0.010519365, z: -0.09774822, w: 0.99510163}
  m_LocalPosition: {x: 0.0357106, y: -0.00000061035155, z: -0.000000076293944}
  m_LocalScale: {x: 1, y: 1, z: 1}
  m_ConstrainProportionsScale: 0
  m_Children:
  - {fileID: 1430332986117914754}
  m_Father: {fileID: 4199363159358980996}
  m_LocalEulerAnglesHint: {x: 0, y: 0, z: 0}
--- !u!1 &8944144339519815689
GameObject:
  m_ObjectHideFlags: 0
  m_CorrespondingSourceObject: {fileID: 0}
  m_PrefabInstance: {fileID: 0}
  m_PrefabAsset: {fileID: 0}
  serializedVersion: 6
  m_Component:
  - component: {fileID: 4724628722835533865}
  m_Layer: 0
  m_Name: foot_l
  m_TagString: Untagged
  m_Icon: {fileID: 0}
  m_NavMeshLayer: 0
  m_StaticEditorFlags: 0
  m_IsActive: 1
--- !u!4 &4724628722835533865
Transform:
  m_ObjectHideFlags: 0
  m_CorrespondingSourceObject: {fileID: 0}
  m_PrefabInstance: {fileID: 0}
  m_PrefabAsset: {fileID: 0}
  m_GameObject: {fileID: 8944144339519815689}
  serializedVersion: 2
  m_LocalRotation: {x: -0.0058857496, y: -0.031991277, z: -0.070354745, w: 0.9969916}
  m_LocalPosition: {x: 0.40196696, y: 0, z: 0}
  m_LocalScale: {x: 1, y: 1, z: 1}
  m_ConstrainProportionsScale: 0
  m_Children:
  - {fileID: 9085869274335169763}
  m_Father: {fileID: 1889905428886274989}
  m_LocalEulerAnglesHint: {x: 0, y: 0, z: 0}
