%YAML 1.1
%TAG !u! tag:unity3d.com,2011:
--- !u!1045 &1
EditorBuildSettings:
  m_ObjectHideFlags: 0
  serializedVersion: 2
  m_Scenes:
  - enabled: 1
    path: Assets/Scenes/Menus/MainMenu.unity
    guid: ae5cc44d35644e346b5759b091efca2e
  - enabled: 1
    path: Assets/Scenes/level1/Level1.unity
    guid: 397086f8590363540ba7929fd79778b9
  - enabled: 1
    path: Assets/Scenes/level3/Level3.unity
    guid: af7ef50e40fd3cb4794e50c00dab1901
  - enabled: 1
    path: "Assets/Scenes/\xC9cran de fin/Victoire.unity"
    guid: 32ef1a41d3961f945a1a91ad91f342d6
  - enabled: 1
    path: "Assets/Scenes/\xC9cran de fin/D\xE9faite.unity"
    guid: a5760e3b469f2d944b656d1f141c6198
  - enabled: 1
    path: Assets/Scenes/Menus/MenuStatsAchievements.unity
    guid: 4dd3b9b1f6fa3b64bacce78a35227b8b
  - enabled: 1
    path: Assets/Scenes/Tutorial/Tutorial.unity
    guid: 11d44539edfa63f459e05f43e7d26807
  m_configObjects:
    com.unity.input.settings: {fileID: 11400000, guid: 79d6550034a31c07484e345cf2aba806, type: 2}
  m_UseUCBPForAssetBundles: 0
