%YAML 1.1
%TAG !u! tag:unity3d.com,2011:
--- !u!114 &11400000
MonoBehaviour:
  m_ObjectHideFlags: 0
  m_CorrespondingSourceObject: {fileID: 0}
  m_PrefabInstance: {fileID: 0}
  m_PrefabAsset: {fileID: 0}
  m_GameObject: {fileID: 0}
  m_Enabled: 1
  m_EditorHideFlags: 0
  m_Script: {fileID: 11500000, guid: be8fa3a5fa523824ab2a553c65721b4b, type: 3}
  m_Name: SleepyNanoBot
  m_EditorClassIdentifier: 
  name: Nanobot dormant
  bonus:
    type: 10
    value: 0.2
    isPercentage: 1
  rarity: 2
  effectDescription: "augmente la gu\xE9rison re\xE7ue de 5% (exemple, la gu\xE9rison
    donne 100 points de vie, \xE7a va changer \xE0 105 points de vie)"
  sprite: {fileID: 21300000, guid: 4eadaea2ca5e48040946cca6a7194318, type: 3}
  condition: None
